"user__uid","user__first_name","user__last_name","organization__uid","organization__name","customer_type","order_no","order_date","status","lines_total","lines_tax","shipping_fee","shipping_discount","total_excl_tax","total_incl_tax","ordered_quantity","ordered_lines_count","payment_term","shipping_method","customer_po_no","due_payment","received_payment","processing_date","delivered_quantity","delivered_total_price","delivered_total_cost","complete_date","cancel_reason","issued_invoice","paid_invoice","quote_numbers","created_at","created_by","self_request","store"
"797168356","Witarsa","","","","Personal","SO-000205","2018-10-01 09:40:51","Completed (Paid)","363600.00","36360.00","9000.00","0.00","372600.00","408960.00","2","1","CBD","JNE/Reguler","","0","408960.00","2018-10-01 10:19:46","2","363600.00","261400","2018-10-03 09:34:40","","408960.00","408960","SQ-000205","2018-10-01 09:40:28","Mutiara Novita","False","Daruma"
"220332317","Not Available","Suharyanto","","","Personal","SO-000206","2018-10-01 11:23:48","Ready to ship","216000.00","21600.00","14000.00","0.00","230000.00","251600.00","12","1","CBD","JNE/Reguler","","0","251600.00","2018-10-01 15:40:34","0","0.00","0","","","251600.00","251600","","2018-10-01 11:05:29","Not Available Suharyanto","True","Daruma"
"698014539","Putri","Mariyah","","","Personal","SO-000207","2018-10-02 11:49:22","Canceled","867000.00","86700.00","9000.00","0.00","876000.00","962700.00","10","1","CBD","JNE/Reguler","","962700.00","0","","0","0.00","0","2018-10-03 08:19:23","Not paid","0","0","","2018-10-02 11:46:16","Putri Mariyah","True","Daruma"
"747640933","Itje","","","","Personal","SO-000208","2018-10-02 14:15:00","Completed (Paid)","2208000.00","220800.00","0.00","0.00","2208000.00","2428800.00","1","1","CBD","PICKUP","","0","2428800.00","2018-10-02 15:45:11","1","2208000.00","1711200","2018-10-10 08:21:48","","2428800.00","2428800","SQ-000209","2018-10-02 14:14:31","Mutiara Novita","False","Daruma"
"698014539","Putri","Mariyah","","","Personal","SO-000209","2018-10-02 15:25:06","Completed (Paid)","867000.00","86700.00","9000.00","0.00","876000.00","962700.00","10","1","CBD","JNE/Reguler","","0","962700.00","2018-10-03 08:16:31","10","867000.00","816000","2018-10-10 08:26:02","","962700.00","962700","","2018-10-02 15:24:37","Putri Mariyah","True","Daruma"
"455956165","Mukti","Hambali","","","Personal","SO-000210","2018-10-02 16:36:40","Completed (Paid)","309000.00","30900.00","22000.00","0.00","331000.00","361900.00","1","1","CBD","JNE/YES","","0","361900.00","2018-10-03 08:17:04","1","309000.00","239200","2018-10-10 08:26:37","","361900.00","361900","","2018-10-02 16:34:05","Mukti Hambali","True","Daruma"
"1861016420","Hatim","","1318817110","Tri Daya Prima","Organization","SO-000211","2018-10-03 08:21:02","Completed (Paid)","3925400.00","392540.00","0.00","0.00","3925400.00","4317940.00","1","1","CBD","PICKUP","PO-037/PCHG-TDP/X-18","0","4317940.00","2018-10-03 14:15:34","1","3925400.00","3305200","2018-10-10 08:26:57","","4317940.00","4317940","SQ-000210","2018-10-03 08:20:13","Mutiara Novita","False","Daruma"
"477193830","Irwan","Susanto","","","Personal","SO-000212","2018-10-03 14:15:23","Canceled","360000.00","36000.00","52000.00","0.00","412000.00","448000.00","12","1","CBD","JNE/YES","","448000.00","0","","0","0.00","0","2018-10-16 11:57:14","No available stock","0","0","","2018-10-03 13:17:02","Irwan Susanto","True","Daruma"
"941322161","Herrry","Chandra","","","Personal","SO-000213","2018-10-04 06:25:21","Pending Payment","205000.00","20500.00","52000.00","0.00","257000.00","277500.00","1","1","CBD","JNE/YES","","277500.00","0","","0","0.00","0","","","0","0","","2018-10-04 06:20:01","Herrry Chandra","True","Daruma"
"1892251339","Irfan","Ayi Hikmawan","","","Personal","SO-000214","2018-10-04 08:34:25","Pending Payment","4154000.00","415400.00","18000.00","0.00","4172000.00","4587400.00","1","1","CBD","JNE/YES","","4587400.00","0","","0","0.00","0","","","0","0","","2018-10-04 08:34:12","Irfan Ayi Hikmawan","True","Daruma"
"1892251339","Irfan","Ayi Hikmawan","","","Personal","SO-000215","2018-10-04 09:06:26","Pending Payment","4154000.00","415400.00","18000.00","0.00","4172000.00","4587400.00","1","1","CBD","JNE/YES","","4587400.00","0","","0","0.00","0","","","0","0","","2018-10-04 09:06:00","Irfan Ayi Hikmawan","True","Daruma"
"946721752","Nopi","Budiyanti","","","Personal","SO-000216","2018-10-04 11:14:42","Completed (Paid)","4384000.00","438400.00","18000.00","0.00","4402000.00","4840400.00","1","1","CBD","JNE/YES","","0","4840400.00","2018-10-04 14:41:56","1","4384000.00","3506900","2018-10-10 08:27:30","","4840400.00","4840400","","2018-10-04 11:06:32","Nopi Budiyanti","True","Daruma"
"534446385","Achmad","Abdul Gani","1154396026","Jangkau Ekspres Transporindo","Organization","SO-000217","2018-10-04 11:40:31","Completed (Paid)","4500000.00","450000.00","81000.00","0.00","4581000.00","5031000.00","1","1","CBD","JNE/Reguler","01/JET/X/2018","0","5031000.00","2018-10-10 08:29:11","1","4500000.00","4050000","2018-10-17 08:36:05","","5031000.00","5031000","SQ-000219","2018-10-04 11:39:09","Mutiara Novita","False","Daruma"
"834770534","Nova","","67312911","Aneka Bearing","Organization","SO-000218","2018-10-04 14:17:58","Completed (Paid)","1672000.00","167200.00","0.00","0.00","1672000.00","1839200.00","40","1","CBD","PICKUP","","0","1839200.00","2018-10-04 14:30:54","40","1672000.00","1440000","2018-10-17 13:47:39","","1839200.00","1839200","SQ-000222","2018-10-04 14:17:33","Mutiara Novita","False","Daruma"
"1636056407","Chandra","Choirulyanto","","","Personal","SO-000219","2018-10-07 18:49:02","Processing","372000.00","37200.00","33000.00","0.00","405000.00","442200.00","1","1","CBD","JNE/Reguler","","0","442200.00","2018-10-08 16:01:50","0","0.00","0","","","0","0","","2018-10-07 18:48:40","Chandra Choirulyanto","True","Daruma"
"99255858","Rangga","Darmawan","","","Personal","SO-000220","2018-10-07 22:38:53","Pending Payment","533000.00","53300.00","11000.00","0.00","544000.00","597300.00","1","1","CBD","JNE/Reguler","","597300.00","0","","0","0.00","0","","","0","0","","2018-10-07 22:32:44","Rangga Darmawan","True","Daruma"
"817001730","Endah","","1613986804","Bina Internasional","Organization","SO-000221","2018-10-08 08:53:12","Completed (Paid)","120000.00","12000.00","9000.00","0.00","129000.00","141000.00","4","1","CBD","JNE/Reguler","PO-181008-002","0","141000.00","2018-10-08 16:02:20","4","120000.00","95200","2018-10-15 10:54:41","","141000.00","141000","SQ-000232","2018-10-08 08:52:51","Mutiara Novita","False","Daruma"
"340993159","Dhedhi R.","","642582516","Sogetech Rhekajaya Indonesia","Organization","SO-000222","2018-10-08 13:40:50","Completed (Paid)","4518200.00","451820.00","36000.00","0.00","4554200.00","5006020.00","4","1","CBD","JNE/Reguler","149/PO/SRI/X/2018","0","5006020.00","2018-10-08 16:02:04","4","4518200.00","3684800","2018-10-15 10:53:59","","5006020.00","5006020","SQ-000224","2018-10-08 13:36:10","Mutiara Novita","False","Daruma"
"1594738398","Novianti","Boentoro","","","Personal","SO-000223","2018-10-08 15:00:50","Completed (Paid)","108000.00","10800.00","18000.00","0.00","126000.00","136800.00","2","1","CBD","JNE/Reguler","","0","136800.00","2018-10-10 15:02:03","2","108000.00","83600","2018-11-05 09:22:05","","136800.00","136800.00","","2018-10-08 14:39:58","Novianti Boentoro","True","Daruma"
"89766250","Fandy","Yuzham","","","Personal","SO-000224","2018-10-09 09:54:29","Completed (Paid)","34500.00","3450.00","9000.00","0.00","43500.00","46950.00","1","1","CBD","JNE/Reguler","Tokopedia INV/20181008/XVIII/X/214041459","0","46950.00","2018-10-09 10:03:55","1","34500.00","27600","2018-10-11 08:36:55","","46950.00","46950","","2018-10-09 09:52:33","Mutiara Novita","False","Daruma"
"100654773","Roswi","Roswi","","","Personal","SO-000225","2018-10-10 08:36:25","Completed (Paid)","550000.00","55000.00","9000.00","0.00","559000.00","614000.00","5","1","CBD","JNE/Reguler","","0","614000.00","2018-10-10 15:39:57","5","550000.00","436500","2018-11-05 09:30:52","","614000.00","614000.00","","2018-10-09 19:36:34","Roswi Roswi","True","Daruma"
"1527158160","Karyabhakti","Manunggal","","","Personal","SO-000226","2018-10-10 14:06:20","Canceled","854000.00","85400.00","40000.00","0.00","894000.00","979400.00","2","1","CBD","JNE/Reguler","","979400.00","0","","0","0.00","0","2018-10-16 14:47:28","Duplicate","0","0","","2018-10-10 13:55:16","Karyabhakti Manunggal","True","Daruma"
"483803504","Eko","Septianto","1658804177","Harapan Jaya Sentosa","Organization","SO-000227","2018-10-10 15:24:20","Completed (Paid)","12000000.00","1200000.00","0.00","0.00","12000000.00","13200000.00","1000","1","CBD","PICKUP","PR/001/HJS/X/2018","0","13200000.00","2018-10-11 09:02:45","1000","12000000.00","10200000","2018-10-17 13:47:02","","13200000.00","13200000","","2018-10-10 15:18:15","Mutiara Novita","False","Daruma"
"1718726496","Gerald","Prabowo","","","Personal","SO-000228","2018-10-10 16:25:07","Completed (Paid)","1972800.00","197280.00","20000.00","0.00","1992800.00","2190080.00","8","2","CBD","JNE/Reguler","","0","2190080.00","2018-10-11 09:04:12","8","1972800.00","1696800","2018-10-17 09:12:48","","2190080.00","2190080","SQ-000249","2018-10-10 16:24:31","Mutiara Novita","False","Daruma"
"701981108","Santi","Darwati","","","Personal","SO-000229","2018-10-10 20:38:13","Completed (Paid)","561000.00","56100.00","36000.00","0.00","597000.00","653100.00","1","1","CBD","JNE/Reguler","","0","653100.00","2018-10-11 13:26:01","1","561000.00","448300","2018-10-18 08:12:58","","653100.00","653100","","2018-10-10 20:34:51","Santi Darwati","True","Daruma"
"1817112036","Dea","","1034223460","Pandawalima Maju Bersama","Organization","SO-000230","2018-10-11 11:25:27","Completed (Paid)","274000.00","27400.00","0.00","0.00","274000.00","301400.00","2","1","CBD","PICKUP","18 – 021","0","301400.00","2018-10-11 13:26:19","2","274000.00","218800","2018-10-12 10:52:53","","301400.00","301400","SQ-000259","2018-10-11 11:25:00","Mutiara Novita","False","Daruma"
"1817112036","Dea","","1034223460","Pandawalima Maju Bersama","Organization","SO-000231","2018-10-11 13:38:30","Completed (Paid)","685000.00","68500.00","0.00","0.00","685000.00","753500.00","5","1","CBD","PICKUP","18 – 122","0","753500.00","2018-10-11 14:43:06","5","685000.00","547000","2018-10-12 10:53:19","","753500.00","753500","SQ-000260","2018-10-11 13:37:58","Mutiara Novita","False","Daruma"
"1135421939","Teten","Sutendi","","","Personal","SO-000232","2018-10-11 22:25:19","Completed (Paid)","548000.00","54800.00","18000.00","0.00","566000.00","620800.00","2","1","CBD","JNE/YES","","0","620800.00","2018-10-12 08:58:19","2","548000.00","437400","2018-10-18 16:16:21","","620800.00","620800","","2018-10-11 22:17:14","Teten Sutendi","True","Daruma"
"1279060349","Fino","","269856747","Trifaraz Jaya Indonesia","Organization","SO-000233","2018-10-12 08:32:39","Processing","17487600.00","1748760.00","0.00","0.00","17487600.00","19236360.00","8","2","CBD","PICKUP","TJI-10-18-06","19236360.00","0","2018-11-12 05:20:55","0","0.00","0","","","0","0","","2018-10-12 08:12:49","Mutiara Novita","False","Daruma"
"433013497","Deni","","","","Personal","SO-000234","2018-10-12 13:15:46","Completed (Paid)","880000.00","88000.00","22000.00","0.00","902000.00","990000.00","2","2","CBD","JNE/Reguler","","0","990000.00","2018-10-15 09:05:58","2","880000.00","681600","2018-10-19 10:51:44","","990000.00","990000","","2018-10-12 13:13:46","Mutiara Novita","False","Daruma"
"1135421939","Teten","Sutendi","","","Personal","SO-000235","2018-10-12 13:29:19","Completed (Paid)","1898000.00","189800.00","18000.00","0.00","1916000.00","2105800.00","11","4","CBD","JNE/YES","","0","2105800.00","2018-10-12 14:12:08","11","1898000.00","1516400","2018-11-07 11:09:03","","2105800.00","2105800.00","","2018-10-12 07:46:40","Teten Sutendi","True","Daruma"
"536246040","Agus","","516310689","Yamada Indonesia","Organization","SO-000236","2018-10-12 15:47:21","Completed (Paid)","960000.00","96000.00","9000.00","0.00","969000.00","1065000.00","10","1","CBD","JNE/Reguler","PTDAP-01/PTYI.2/X/2018","0","1065000.00","2018-10-16 14:01:59","10","960000.00","740000","2018-11-08 08:50:42","","1065000.00","1065000","SQ-000268","2018-10-12 15:46:13","Mutiara Novita","False","Daruma"
"966594865","Chandra","","1508315740","Harapan Mega Presisi","Organization","SO-000237","2018-10-12 16:54:05","Canceled","15398550.00","1539855.00","54000.00","0.00","15452550.00","16992405.00","3","1","CBD","JNE/Reguler","","16992405.00","0","","0","0.00","0","2018-10-16 14:47:56","Duplicate","0","0","SQ-000271","2018-10-12 16:53:44","Mutiara Novita","False","Daruma"
"1666244176","Suhud","Karuniawan","","","Personal","SO-000238","2018-10-13 06:22:57","Pending Payment","5750000.00","575000.00","30000.00","0.00","5780000.00","6355000.00","10","1","CBD","JNE/Reguler","","6355000.00","0","","0","0.00","0","","","0","0","","2018-10-13 03:50:56","Suhud Karuniawan","True","Daruma"
"966594865","Chandra","","1508315740","Harapan Mega Presisi","Organization","SO-000239","2018-10-15 08:43:20","Completed (Paid)","15398550.00","1539855.00","0.00","0.00","15398550.00","16938405.00","3","1","CBD","PICKUP","","0","16938405.00","2018-10-15 09:03:45","3","15398550.00","12966900","2018-10-15 14:06:09","","16938405.00","16938405","","2018-10-15 08:40:14","Mutiara Novita","False","Daruma"
"1640450944","Novi","","1447773955","Sas Kameyama Casting Indonesia","Organization","SO-000240","2018-10-15 09:46:41","Completed (Paid)","76000.00","7600.00","27000.00","0.00","103000.00","110600.00","1","1","CBD","JNE/Reguler","PO18100017","0","110600.00","2018-10-17 08:29:45","1","76000.00","60300","2018-10-23 13:34:20","","110600.00","110600","SQ-000241","2018-10-15 09:46:00","Mutiara Novita","False","Daruma"
"541882545","Longgam","Panjaitan","1612248791","Karya Bhakti Manunggal","Organization","SO-000241","2018-10-15 10:39:29","Completed (Paid)","2582900.00","258290.00","400000.00","0.00","2982900.00","3241190.00","11","3","CBD","JNE/Reguler","OP/ML2/1810/049","0","6482190.00","2018-10-16 09:05:36","11","2582900.00","2385750","2018-10-22 13:14:24","","3241190.00","3241190.00","SQ-000254","2018-10-15 10:38:35","Mutiara Novita","False","Daruma"
"1083314573","Sutarti","Sutarti","","","Personal","SO-000242","2018-10-15 11:24:49","Completed (Paid)","608400.00","60840.00","9000.00","0.00","617400.00","678240.00","2","1","CBD","JNE/Reguler","","0","678240.00","2018-10-16 08:05:18","2","608400.00","0","2018-10-18 09:40:30","","678240.00","678240","","2018-10-15 11:20:47","Sutarti Sutarti","True","Daruma"
"1992223527","Handoyo","Handoyo","","","Personal","SO-000243","2018-10-15 11:32:25","Canceled","517500.00","51750.00","9000.00","0.00","526500.00","578250.00","15","1","CBD","JNE/Reguler","","578250.00","0","","0","0.00","0","2018-10-16 14:48:29","Duplicate","0","0","","2018-10-12 11:37:34","Handoyo Handoyo","True","Daruma"
"1592179633","Josh","","","","Personal","SO-000244","2018-10-15 13:44:04","Canceled","955000.00","95500.00","28000.00","0.00","983000.00","1078500.00","1","1","CBD","JNE/Reguler","","0","1078500.00","2018-10-15 15:34:38","0","0.00","0","2018-10-15 16:19:42","Requested by customer","0","0","","2018-10-15 13:43:24","Mutiara Novita","False","Daruma"
"1226377417","Ifan","Ramadhani","","","Personal","SO-000245","2018-10-15 14:39:05","Completed (Paid)","182000.00","18200.00","26000.00","0.00","208000.00","226200.00","2","2","CBD","JNE/Reguler","","0","226200.00","2018-10-15 15:42:46","2","182000.00","144600","2018-10-22 09:30:08","","226200.00","226200","","2018-10-13 10:18:58","Ifan Ramadhani","True","Daruma"
"528161551","Restu","","317424398","Kendali Paramita","Organization","SO-000246","2018-10-15 16:06:18","Canceled","780000.00","78000.00","0.00","0.00","780000.00","858000.00","20","1","CBD","PICKUP","010/DAP/18","858000.00","0","","0","0.00","0","2018-10-16 11:59:53","Duplicate","0","0","SQ-000277","2018-10-15 16:02:51","Mutiara Novita","False","Daruma"
"1249195576","Josh","","","","Personal","SO-000247","2018-10-15 16:21:18","Completed (Paid)","955000.00","95500.00","38000.00","0.00","993000.00","1088500.00","1","1","CBD","JNE/YES","","0","1088500.00","2018-10-15 16:31:52","1","955000.00","763700","2018-10-19 10:56:33","","1088500.00","1088500","","2018-10-15 16:10:59","Mutiara Novita","False","Daruma"
"1992223527","Handoyo","Handoyo","","","Personal","SO-000248","2018-10-15 16:47:26","Completed (Paid)","517500.00","51750.00","18000.00","0.00","535500.00","587250.00","15","1","CBD","JNE/YES","","0","587250.00","2018-10-16 08:05:31","15","517500.00","0","2018-10-18 09:42:12","","587250.00","587250","","2018-10-15 16:46:31","Handoyo Handoyo","True","Daruma"
"1297659164","Zaelani","","424239338","Pelita Niaga Sejahtera","Organization","SO-000249","2018-10-16 09:00:52","Completed (Paid)","2073000.00","207300.00","0.00","0.00","2073000.00","2280300.00","1","1","CBD","PICKUP","3349/PNS","0","2280300.00","2018-10-16 14:01:46","1","2073000.00","1606300","2018-10-22 09:35:14","","2280300.00","2280300","SQ-000275","2018-10-16 08:47:44","Mutiara Novita","False","Daruma"
"1103188112","Ari","Dewanto","","","Personal","SO-000250","2018-10-16 09:28:30","Canceled","418500.00","41850.00","9000.00","0.00","427500.00","469350.00","3","1","CBD","JNE/Reguler","","469350.00","0","","0","0.00","0","2018-10-16 14:48:52","No available stock","0","0","","2018-10-16 09:27:07","Ari Dewanto","True","Daruma"
"985657099","Ari","","45609457","Incoray Nitrama","Organization","SO-000251","2018-10-16 11:27:08","Completed (Paid)","1042200.00","104220.00","0.00","0.00","1042200.00","1146420.00","3","1","CBD","PICKUP","","0","1146420.00","2018-10-16 11:35:03","3","1042200.00","0","2018-10-16 13:36:24","","1146420.00","1146420","SQ-000279","2018-10-16 11:27:01","Mutiara Novita","False","Daruma"
"1383321695","Iyan","Suryana","","","Personal","SO-000252","2018-10-16 11:55:35","Completed (Paid)","613000.00","61300.00","18000.00","0.00","631000.00","692300.00","2","2","CBD","JNE/YES","","0","692300.00","2018-10-16 13:41:00","2","613000.00","490000","2018-10-22 09:43:24","","692300.00","692300","","2018-10-16 11:49:13","Iyan Suryana","True","Daruma"
"528161551","Restu","","317424398","Kendali Paramita","Organization","SO-000253","2018-10-16 12:03:08","Completed (Paid)","780000.00","78000.00","0.00","0.00","780000.00","858000.00","20","1","NET15","PICKUP","010/DAP/18","0","858000.00","2018-10-16 12:03:09","20","780000.00","701577","2018-10-23 13:32:26","","858000.00","858000","","2018-10-16 11:51:16","Mutiara Novita","False","Daruma"
"163347812","Cut Sheila","","1888140894","Estu Adiarta","Organization","SO-000254","2018-10-16 14:44:59","Completed (Paid)","205200.00","20520.00","18000.00","0.00","223200.00","243720.00","1","1","CBD","JNE/YES","PO/18/EA/0655","0","243720.00","2018-10-16 15:19:42","1","205200.00","167100","2018-10-17 13:46:08","","243720.00","243720","","2018-10-16 14:41:26","Mutiara Novita","False","Daruma"
"354998976","Heri","Suryadi","","","Personal","SO-000255","2018-10-17 13:56:39","Completed (Paid)","118600.00","11860.00","18000.00","0.00","136600.00","148460.00","2","1","CBD","JNE/Reguler","","0","148460.00","2018-10-17 14:55:09","2","118600.00","106000","2018-10-22 09:48:31","","148460.00","148460","","2018-10-17 13:54:36","Heri Suryadi","True","Daruma"
"208833900","Ruth","","316964752","Servindo Jaya Utama","Organization","SO-000256","2018-10-17 15:06:59","Completed (Paid)","6868312.00","686831.20","0.00","0.00","6868312.00","7555143.20","1","1","CBD","PICKUP","","0","7555143.20","2018-10-17 15:23:18","1","6868312.00","5819000","2018-10-22 09:49:36","","7555143.20","7555143.20","SQ-000244","2018-10-17 14:58:09","Mutiara Novita","False","Daruma"
"1428185344","Heri","","1332007989","Catur Teknik Mandiri","Organization","SO-000257","2018-10-17 17:01:01","Completed (Paid)","1881000.00","188100.00","0.00","0.00","1881000.00","2069100.00","3","1","CBD","PICKUP","519/PO-CTM-BKS/MRT/X/2018","0","2069100.00","2018-10-18 11:53:53","3","1881000.00","1455600","2018-10-18 15:57:45","","2069100.00","2069100","SQ-000287","2018-10-17 17:00:14","Mutiara Novita","False","Daruma"
"89365143","Kasmi","Toto","","","Personal","SO-000258","2018-10-17 22:00:25","Pending Payment","3014000.00","301400.00","294000.00","0.00","3308000.00","3609400.00","1","1","CBD","JNE/Reguler","","3609400.00","0","","0","0.00","0","","","0","0","","2018-10-17 21:58:39","Kasmi Toto","True","Daruma"
"2005018477","Ali","Musthofa","1324568795","Boston","Organization","SO-000259","2018-10-18 08:19:11","Canceled","1696800.00","169680.00","198000.00","0.00","1894800.00","2064480.00","6","3","CBD","JNE/Reguler","","2064480.00","0","","0","0.00","0","2018-10-19 09:21:31","Duplicate","0","0","SQ-000286","2018-10-18 08:18:47","Mega Julianti","False","Daruma"
"1920998295","Dessy","","201787144","Gudang Tinta Toner","Organization","SO-000260","2018-10-18 09:19:43","Completed (Paid)","4156250.00","415625.00","0.00","0.00","4156250.00","4571875.00","25","1","CBD","PICKUP","0473/LKL/10/18","0","4571875.00","2018-10-18 09:55:07","25","4156250.00","3500000","2018-10-18 11:27:01","","4571875.00","4571875","SQ-000289","2018-10-18 09:17:53","Mutiara Novita","False","Daruma"
"1582521261","Sri","","811708239","Srikandi Jaya","Organization","SO-000261","2018-10-18 09:27:03","Shipping","3545400.00","354540.00","0.00","0.00","3545400.00","3899940.00","3","1","CBD","PICKUP","014/SJ/VIII/18","0","3899940.00","2018-10-18 09:53:11","0","0.00","0","","","3899940.00","3899940","","2018-10-17 13:40:48","Mutiara Novita","False","Daruma"
"1424309466","Chintia","","975394233","Alam Teknik Abadi Semesta","Organization","SO-000262","2018-10-18 16:27:00","Processing","1575100.00","157510.00","0.00","0.00","1575100.00","1732610.00","2","2","CBD","PICKUP","PO1810-00025","0","1732610.00","2018-10-19 08:26:37","1","1164700.00","919000","","","0","0","","2018-10-18 14:34:15","Mutiara Novita","False","Daruma"
"1424309466","Chintia","","975394233","Alam Teknik Abadi Semesta","Organization","SO-000263","2018-10-18 16:30:56","Processing","2474750.00","247475.00","0.00","0.00","2474750.00","2722225.00","3","3","CBD","PICKUP","PO1810-00040","0","2722225.00","2018-10-19 08:27:43","1","1164700.00","919000","","","0","0","","2018-10-18 16:28:15","Mutiara Novita","False","Daruma"
"1474623762","Ajeng","Wulandari","","","Personal","SO-000264","2018-10-18 16:34:27","Canceled","64000.00","6400.00","9000.00","0.00","73000.00","79400.00","1","1","CBD","JNE/Reguler","","0","79400.00","2018-10-19 08:31:09","0","0.00","0","2018-10-19 10:39:36","Requested by customer","0","0","","2018-10-18 16:15:12","Ajeng Wulandari","True","Daruma"
"1838704226","Ajeng","","303509366","Berkat Niaga Dunia","Organization","SO-000269","2018-10-18 16:34:27","Completed (Paid)","64000.00","6400.00","9000.00","0.00","73000.00","79400.00","1","1","CBD","JNE/Reguler","","0","79400.00","2018-10-19 10:59:33","1","64000.00","50900","2018-10-25 08:38:49","","79400.00","79400","","2018-10-19 10:39:50","Mutiara Novita","False","Daruma"
"1424309466","Chintia","","975394233","Alam Teknik Abadi Semesta","Organization","SO-000265","2018-10-18 16:35:55","Processing","899650.00","89965.00","0.00","0.00","899650.00","989615.00","1","1","CBD","PICKUP","PO1810-00026","0","989615.00","2018-10-19 08:28:12","0","0.00","0","","","0","0","","2018-10-18 16:33:27","Mutiara Novita","False","Daruma"
"1993270407","Handi","Sunadi","","","Personal","SO-000266","2018-10-18 16:48:48","Canceled","431100.00","43110.00","18000.00","0.00","449100.00","492210.00","2","2","CBD","JNE/YES","","492210.00","0","","0","0.00","0","2018-10-23 14:49:37","Duplicate","0","0","","2018-10-15 14:30:20","Handi Sunadi","True","Daruma"
"1993270407","Handi","Sunadi","","","Personal","SO-000267","2018-10-18 16:55:53","Completed (Paid)","139500.00","13950.00","18000.00","0.00","157500.00","171450.00","1","1","CBD","JNE/YES","","0","171450.00","2018-10-19 10:28:28","1","139500.00","100300","2018-10-23 13:35:02","","171450.00","171450","","2018-10-18 16:51:54","Handi Sunadi","True","Daruma"
"226133568","Widya","Liana Aji","","","Personal","SO-000268","2018-10-18 20:41:02","Completed (Paid)","210000.00","21000.00","14000.00","0.00","224000.00","245000.00","30","1","CBD","JNE/Reguler","","0","245000.00","2018-10-22 11:36:44","30","210000.00","150000","2018-10-29 13:13:12","","245000.00","245000","","2018-10-18 20:33:03","Widya Liana Aji","True","Daruma"
"1667353460","Iwan Affan","","","","Personal","SO-000270","2018-10-19 10:59:36","Completed (Paid)","320000.00","32000.00","0.00","0.00","320000.00","352000.00","1","1","CBD","PICKUP","INV/20181018/XVIII/X/218868200","0","372704.00","2018-10-19 15:04:02","1","320000.00","230300","2018-10-22 15:47:27","","352000.00","352000.00","","2018-10-19 10:54:55","Mutiara Novita","False","Daruma"
"433013497","Deni","","","","Personal","SO-000271","2018-10-19 11:58:34","Completed (Paid)","1024100.00","102410.00","22000.00","0.00","1046100.00","1148510.00","2","2","CBD","JNE/YES","","0","1148510.00","2018-10-22 14:46:36","2","1024100.00","835200","2018-10-29 13:20:18","","1148510.00","1148510","","2018-10-19 11:54:49","Mutiara Novita","False","Daruma"
"1228582960","Rianti","","1650514341","Cahaya Sakti Abadi","Organization","SO-000272","2018-10-19 16:15:05","Processing","1700500.00","170050.00","0.00","0.00","1700500.00","1870550.00","10","1","CBD","PICKUP","PO# 2083/CSA/X/2018","1870550.00","0","2018-11-12 16:52:46","0","0.00","0","","","0","0","SQ-000302","2018-10-19 16:13:29","Mega Julianti","False","Daruma"
"544337071","Asep","Isbat","","","Personal","SO-000273","2018-10-22 11:32:38","Completed (Paid)","552000.00","55200.00","72000.00","0.00","624000.00","679200.00","16","1","CBD","JNE/YES","","0","679200.00","2018-10-22 14:46:10","16","552000.00","441600","2018-10-29 13:14:41","","679200.00","679200","","2018-10-22 09:50:58","Asep Isbat","True","Daruma"
"550081116","Dori","Officer","","","Personal","SO-000274","2018-10-22 13:26:28","Completed (Paid)","1360000.00","136000.00","9000.00","0.00","1369000.00","1505000.00","10","1","CBD","JNE/Reguler","","0","1505000.00","2018-10-24 14:38:54","10","1360000.00","1088000","2018-10-31 09:49:43","","1505000.00","1505000","","2018-10-22 13:15:28","Dori Officer","True","Daruma"
"1144097163","Lukman","","1858340995","Tri Sakti Jaya","Organization","SO-000275","2018-10-22 13:31:25","Canceled","1026000.00","102600.00","0.00","0.00","1026000.00","1128600.00","5","1","CBD","PICKUP","","0","1128600.00","2018-10-22 14:47:04","1","205200.00","167100","2018-10-23 15:01:07","Requested by customer","0","0","","2018-10-22 13:11:47","Mutiara Novita","False","Daruma"
"1256904520","Dwi","Suranto","","","Personal","SO-000276","2018-10-22 13:33:49","Completed (Paid)","250000.00","25000.00","18000.00","0.00","268000.00","293000.00","2","1","CBD","JNE/YES","","0","293000.00","2018-10-23 08:16:41","2","250000.00","193200","2018-10-29 13:20:54","","293000.00","293000","","2018-10-22 13:26:16","Dwi Suranto","True","Daruma"
"46996191","Yuli","","49403996","Whetron Jaya Indonesia","Organization","SO-000277","2018-10-22 14:14:39","Completed (Paid)","31706250.00","3170625.00","0.00","0.00","31706250.00","34876875.00","1","1","CBD","PICKUP","821/X/PO-WJI/OEM/CBT/2018","0","34876875.00","2018-10-25 15:11:00","1","31706250.00","27125000","2018-10-31 09:50:42","","34876875.00","34876875","SQ-000308","2018-10-22 14:09:57","Mutiara Novita","False","Daruma"
"2028310919","Ricky","Maroy","1166480574","Lintech Duta Pratama","Organization","SO-000278","2018-10-22 14:39:52","Completed (Paid)","106000.00","10600.00","19000.00","0.00","125000.00","135600.00","1","1","CBD","JNE/Reguler","","0","135600.00","2018-10-25 15:42:30","1","106000.00","84400","2018-11-06 13:14:04","","135600.00","135600","","2018-10-22 14:33:10","Mega Julianti","False","Daruma"
"1961109631","Daniel","","2118213692","Harapan Dinamika Berjaya","Organization","SO-000279","2018-10-22 15:20:36","Processing","12280000.00","1228000.00","0.00","0.00","12280000.00","13508000.00","40","1","CBD","PICKUP","048/PO/HDB/X/18","0","13508000.00","2018-10-23 08:18:42","0","0.00","0","","","0","0","","2018-10-22 15:18:02","Mutiara Novita","False","Daruma"
"759496054","Budiaman/Yoko","","1260351922","Topindo Raya Sejati","Organization","SO-000280","2018-10-23 09:40:34","Completed (Paid)","731700.00","73170.00","33000.00","0.00","764700.00","837870.00","1","1","CBD","JNE/Reguler","","0","837870.00","2018-10-23 13:27:17","1","731700.00","650000","2018-10-31 09:49:14","","837870.00","837870","","2018-10-23 09:36:27","Mega Julianti","False","Daruma"
"693278764","Juni","","1562485896","Prestige Packages Indonesia","Organization","SO-000281","2018-10-23 10:34:24","Completed (Paid)","136800.00","13680.00","60000.00","0.00","196800.00","210480.00","1","1","CBD","JNE/Reguler","","0","210480.00","2018-10-23 13:30:15","1","136800.00","98700","2018-10-29 11:24:57","","210480.00","210480","","2018-10-23 10:32:16","Mutiara Novita","False","Daruma"
"924730895","Memet","Kukilo","","","Personal","SO-000282","2018-10-23 11:37:29","Completed (Paid)","55300.00","5530.00","9000.00","0.00","64300.00","69830.00","1","1","CBD","JNE/Reguler","","0","69830.00","2018-10-23 13:23:38","1","55300.00","51300","2018-10-29 11:25:20","","69830.00","69830","","2018-10-23 11:33:39","Memet Kukilo","True","Daruma"
"1144097163","Lukman","","1858340995","Tri Sakti Jaya","Organization","SO-000283","2018-10-23 15:05:49","Processing","205200.00","20520.00","0.00","0.00","205200.00","225720.00","1","1","CBD","PICKUP","","0","225720.00","2018-10-25 15:17:51","0","0.00","0","","","0","0","","2018-10-23 15:01:23","Mutiara Novita","False","Daruma"
"448409322","Loli","","317424398","Kendali Paramita","Organization","SO-000284","2018-10-23 15:54:27","Completed (Paid)","3042150.00","304215.00","0.00","0.00","3042150.00","3346365.00","1","1","CBD","PICKUP","011/DAP/18","0","3346365.00","2018-10-24 16:21:41","1","3042150.00","2773400","2018-10-30 10:10:22","","3346365.00","3346365","SQ-000255","2018-10-23 15:53:30","Mutiara Novita","False","Daruma"
"1660725862","Anjas","","94240319","Bumi Mitra Industri","Organization","SO-000285","2018-10-24 13:19:23","Completed (Paid)","1205100.00","120510.00","0.00","0.00","1205100.00","1325610.00","1","1","CBD","JNE/Reguler","SO/X-18/BMI/0003","0","1325610.00","2018-10-29 11:37:08","1","1205100.00","1070800","2018-11-02 08:26:49","","1325610.00","1325610","SQ-000315","2018-10-24 13:16:32","Mutiara Novita","False","Daruma"
"435220404","Mardi","Siaw","","","Personal","SO-000286","2018-10-24 14:03:44","Processing","211000.00","21100.00","11000.00","0.00","222000.00","243100.00","4","2","CBD","JNE/Reguler","","0","243100.00","2018-10-24 16:22:18","3","161000.00","127900","","","177100.00","177100.00","","2018-10-02 16:09:56","Mardi Siaw","True","Daruma"
"1640450944","Novi","","1447773955","Sas Kameyama Casting Indonesia","Organization","SO-000287","2018-10-24 15:15:05","Processing","5569850.00","556985.00","270000.00","0.00","5839850.00","6396835.00","21","2","CBD","JNE/Reguler","P18100023","6396835.00","0","2018-11-12 16:53:00","0","0.00","0","","","0","0","SQ-000243","2018-10-24 15:14:31","Mutiara Novita","False","Daruma"
"427647223","Flora","","412128511","Mayky Lovic Tangguh Perkasa","Organization","SO-000288","2018-10-24 16:31:10","Completed (Paid)","892800.00","89280.00","9000.00","0.00","901800.00","991080.00","1","1","CBD","JNE/Reguler","238/FF.Pcs/MLTP/X/18","0","991080.00","2018-10-25 15:11:22","1","892800.00","793600","2018-10-31 14:48:16","","991080.00","991080","SQ-000316","2018-10-24 16:30:29","Mutiara Novita","False","Daruma"
"1584077765","Jalu","","389967087","Dwimitra Sejahtera Mandiri","Organization","SO-000289","2018-10-25 08:16:53","Processing","1728000.00","172800.00","0.00","0.00","1728000.00","1900800.00","8","4","CBD","JNE/Reguler","1 80067","0","1900800.00","2018-10-25 15:11:36","6","900000.00","693900","","","990000.00","990000.00","SQ-000245","2018-10-25 08:15:17","Mutiara Novita","False","Daruma"
"370564882","Thorry","Hendrarto","","","Personal","SO-000290","2018-10-25 08:36:05","Processing","346000.00","34600.00","18000.00","0.00","364000.00","398600.00","4","2","CBD","JNE/YES","","0","398600.00","2018-10-25 09:38:49","2","173000.00","137600","","","190300.00","190300.00","","2018-10-23 10:40:50","Thorry Hendrarto","True","Daruma"
"1610041625","Asma","","1090330275","Putra Alam Teknologi","Organization","SO-000291","2018-10-25 09:21:48","Processing","685000.00","68500.00","0.00","0.00","685000.00","753500.00","5","1","CBD","JNE/Reguler","GT18/X/1160","0","753500.00","2018-10-25 16:16:09","0","0.00","0","","","0","0","","2018-10-25 09:13:22","Mutiara Novita","False","Daruma"
"1610041625","Asma","","1090330275","Putra Alam Teknologi","Organization","SO-000292","2018-10-25 09:25:49","Processing","1370000.00","137000.00","0.00","0.00","1370000.00","1507000.00","5","1","CBD","JNE/Reguler","GT18/X/1161","1507000.00","0","2018-11-12 16:53:09","0","0.00","0","","","0","0","","2018-10-25 09:22:08","Mutiara Novita","False","Daruma"
"1204223708","Hartanto","","531638122","Harrisma Buwana Jaya","Organization","SO-000293","2018-10-25 10:05:44","Completed (Paid)","3937500.00","393750.00","30000.00","0.00","3967500.00","4361250.00","1","1","CBD","JNE/Reguler","PO-01235","0","4361250.00","2018-10-29 15:05:09","1","3937500.00","3500000","2018-10-31 09:51:58","","4361250.00","4361250","SQ-000311","2018-10-25 10:04:21","Mutiara Novita","False","Daruma"
"1557151916","Winly","Moniaga","","","Personal","SO-000294","2018-10-25 10:07:03","Canceled","1893000.00","189300.00","18000.00","0.00","1911000.00","2100300.00","1","1","CBD","JNE/YES","","2100300.00","0","","0","0.00","0","2018-11-12 16:51:28","No available stock","0","0","","2018-10-25 10:06:08","Winly Moniaga","True","Daruma"
"1995960323","Evi","","1328922112","Smart Mitra Solutions","Organization","SO-000295","2018-10-25 11:11:29","Completed (Paid)","228000.00","22800.00","0.00","0.00","228000.00","250800.00","6","1","NET15","PICKUP","236/PO/SMS/X/E/18","0","250800.00","2018-10-25 11:11:31","6","228000.00","205140","2018-10-29 11:23:26","","250800.00","250800","SQ-000325","2018-10-25 11:11:01","Mutiara Novita","False","Daruma"
"655833924","Unggul","","310378835","Multi Teknik Semesta","Organization","SO-000296","2018-10-25 11:38:00","Completed (Paid)","26183250.00","2618325.00","0.00","0.00","26183250.00","28801575.00","25","1","CBD","PICKUP","546/MTS-BTG/PO-DAP/X/2018","0","28801575.00","2018-10-26 13:52:18","25","26183250.00","21002500","2018-11-07 11:07:56","","28801575.00","28801575","SQ-000326","2018-10-25 11:36:28","Mutiara Novita","False","Daruma"
"1399066476","Aurellia","Angeline","","","Personal","SO-000297","2018-10-25 19:33:12","Completed (Paid)","205000.00","20500.00","52000.00","0.00","257000.00","277500.00","1","1","CBD","JNE/YES","","0","277500.00","2018-10-26 08:44:38","1","205000.00","158700","2018-11-02 09:29:09","","277500.00","277500","","2018-10-25 19:31:20","Aurellia Angeline","True","Daruma"
"1469235234","Ino","","1391842076","Sejin Lestari Furniture","Organization","SO-000298","2018-10-26 09:39:43","Canceled","3990000.00","399000.00","33000.00","0.00","4023000.00","4422000.00","50","1","CBD","JNE/Reguler","201810250008","4422000.00","0","","0","0.00","0","2018-10-31 14:02:03","Not paid","0","0","SQ-000330","2018-10-26 09:28:34","Mutiara Novita","False","Daruma"
"333986406","Meri Zaini","","2014144199","Edf System Integration","Organization","SO-000299","2018-10-26 13:13:25","Canceled","9900000.00","990000.00","0.00","0.00","9900000.00","10890000.00","1","1","CBD","PICKUP","","10890000.00","0","","0","0.00","0","2018-10-26 13:15:11","Duplicate","0","0","","2018-10-26 13:09:53","Mega Julianti","False","Daruma"
"2011982363","Wawat","","1545182225","Osa Mandiri Pratama","Organization","SO-000300","2018-10-26 13:25:39","Processing","4370950.00","437095.00","0.00","0.00","4370950.00","4808045.00","31","2","CBD","PICKUP","","0","4808045.00","2018-10-26 13:52:29","30","4001400.00","3033000","","","4401540.00","4401540.00","SQ-000304","2018-10-26 13:22:43","Mutiara Novita","False","Daruma"
"947364370","Ardiyanto","","47628529","Dunia Katiga","Organization","SO-000301","2018-10-26 13:39:15","Processing","1140000.00","114000.00","18000.00","0.00","1158000.00","1272000.00","20","1","CBD","JNE/Reguler","01/PO/DAP/X/18/DK","0","1272000.00","2018-10-26 15:23:52","8","456000.00","380000","","","501600.00","501600.00","SQ-000331","2018-10-26 13:38:14","Mutiara Novita","False","Daruma"
"950033626","Trisno","","","","Personal","SO-000302","2018-10-26 13:58:29","Completed (Paid)","69090.00","6909.00","9000.00","0.00","78090.00","84999.00","2","1","CBD","JNE/Reguler","Pesanan Tokopedia","0","84999.00","2018-10-26 15:17:54","2","69090.00","55200","2018-10-31 09:51:33","","84999.00","84999","","2018-10-26 13:49:06","Mutiara Novita","False","Daruma"
"2077174358","Martin Hendrik","Tangkilisan Sh","455004681","Sarana Prima Lestari","Organization","SO-000303","2018-10-29 08:56:27","Canceled","4500000.00","450000.00","45000.00","0.00","4545000.00","4995000.00","1","1","CBD","JNE/Reguler","PO-695-1018","4995000.00","0","","0","0.00","0","2018-11-01 10:42:30","Duplicate","0","0","SQ-000290","2018-10-29 08:50:10","Mega Julianti","False","Daruma"
"45900254","Yoga","","1874831013","Asia Mitra Perkasa","Organization","SO-000304","2018-10-29 11:40:47","Completed (Paid)","1413900.00","141390.00","0.00","0.00","1413900.00","1555290.00","1","1","CBD","PICKUP","139/PO/AMP/X/2018","0","1555290.00","2018-10-30 08:20:18","1","1413900.00","1256400","2018-11-06 13:13:22","","1555290.00","1555290","SQ-000337","2018-10-29 11:40:04","Mutiara Novita","False","Daruma"
"84402355","Octa","Viano","","","Personal","SO-000305","2018-10-29 15:44:18","Pending Payment","4000.00","400.00","9000.00","0.00","13000.00","13400.00","1","1","CBD","JNE/Reguler","","13400.00","0","","0","0.00","0","","","0","0","","2018-10-29 15:40:08","Octa Viano","True","Daruma"
"1057505808","Adhika","Hendrianto","","","Personal","SO-000306","2018-10-30 07:46:06","Canceled","1960000.00","196000.00","27000.00","0.00","1987000.00","2183000.00","20","1","CBD","JNE/Reguler","","2183000.00","0","","0","0.00","0","2018-11-08 08:33:15","Duplicate","0","0","","2018-10-30 07:44:52","Adhika Hendrianto","True","Daruma"
"1921241897","Nur","Alfiyah","","","Personal","SO-000307","2018-10-30 09:29:49","Completed","1492740.00","149274.00","9000.00","0.00","1501740.00","1651014.00","1","1","CBD","JNE/Reguler","","0","1651014.00","2018-10-30 10:12:37","1","1492740.00","1360000","2018-11-02 08:56:03","","0","0","SQ-000342","2018-10-30 09:29:33","Mutiara Novita","False","Daruma"
"649673632","Hasan","","89589304","Enshu Indonesia","Organization","SO-000308","2018-10-30 15:21:12","Processing","509200.00","50920.00","18000.00","0.00","527200.00","578120.00","4","1","CBD","JNE/Reguler","P02-0210","0","578120.00","2018-11-08 10:40:39","0","0.00","0","","","0","0","SQ-000338","2018-10-30 15:20:22","Mutiara Novita","False","Daruma"
"522535617","Handoko/Riri","","1833335932","Surya Meiden Engineering","Organization","SO-000309","2018-10-31 09:59:22","Completed","549900.00","54990.00","0.00","0.00","549900.00","604890.00","2","2","CBD","PICKUP","","0","604890.00","2018-10-31 10:53:09","2","549900.00","488200","2018-11-01 09:15:05","","0","0","SQ-000346","2018-10-31 09:54:31","Mega Julianti","False","Daruma"
"1174198590","Junita","","403363330","Anugerah Metal Mitra Mandiri","Organization","SO-000310","2018-10-31 11:39:23","Processing","4177150.00","417715.00","0.00","0.00","4177150.00","4594865.00","1","1","CBD","JNE/Reguler","407/X/PO/AM3/18","0","4594865.00","2018-10-31 15:21:23","0","0.00","0","","","0","0","SQ-000349","2018-10-31 11:37:05","Mutiara Novita","False","Daruma"
"1642609726","Andri","Prawira","","","Personal","SO-000311","2018-10-31 12:04:16","Processing","150000.00","15000.00","9000.00","0.00","159000.00","174000.00","1","1","CBD","JNE/Reguler","","0","174000.00","2018-10-31 15:20:58","0","0.00","0","","","0","0","","2018-10-31 11:55:09","Andri Prawira","True","Daruma"
"1995960323","Evi","","1328922112","Smart Mitra Solutions","Organization","SO-000312","2018-11-01 10:15:15","Processing","1927200.00","192720.00","0.00","0.00","1927200.00","2119920.00","123","25","NET15","PICKUP","239/PO/SMS/X/E/18","0","0","2018-11-01 10:15:18","119","1899200.00","1622783.3199999998323619365692138671875","","","2089120.00","0","","2018-10-30 10:31:52","Mutiara Novita","False","Daruma"
"1481652698","Evi","","1577853045","Jingga Kreasi Teknik","Organization","SO-000313","2018-11-01 10:40:25","Completed","721000.00","72100.00","0.00","0.00","721000.00","793100.00","24","7","NET15","PICKUP","241/PO/JKT/X/E/18","0","0","2018-11-01 10:40:27","24","721000.00","636550","2018-11-08 08:49:21","","793100.00","0","","2018-10-30 13:57:57","Mutiara Novita","False","Daruma"
"1826031888","Evi","","1508771301","Jingga Jaya Abadi","Organization","SO-000314","2018-11-01 10:41:38","Processing","623500.00","62350.00","0.00","0.00","623500.00","685850.00","21","4","NET15","PICKUP","","0","0","2018-11-01 10:41:41","19","623500.00","551130","","","685850.00","0","","2018-10-30 14:03:36","Mutiara Novita","False","Daruma"
"1561699642","Rifky","","1749880898","Penta Ocean – Toa – Rinkai – Pp – Wika Consortium (Ptrpw)","Organization","SO-000315","2018-11-01 13:51:27","Pending Payment","3096000.00","309600.00","90000.00","0.00","3186000.00","3495600.00","10","1","CBD","JNE/Reguler","FM-047-3718-2018-801-18-057A-0 (1)","3495600.00","0","","0","0.00","0","","","0","0","SQ-000314","2018-11-01 13:51:05","Mega Julianti","False","Daruma"
"1011214145","Venny","","392298368","Somagede Indonesia","Organization","SO-000316","2018-11-01 16:02:34","Canceled","665280.00","66528.00","0.00","0.00","665280.00","731808.00","24","0","CBD","PICKUP","1801200296","731808.00","0","","0","0","0","2018-11-01 16:06:38","Not paid","0","0","SQ-000361","2018-11-01 15:49:33","Mutiara Novita","False","Daruma"
"1011214145","Venny","","392298368","Somagede Indonesia","Organization","SO-000317","2018-11-01 16:07:44","Completed","665280.00","66528.00","0.00","0.00","665280.00","731808.00","24","1","NET15","PICKUP","1801200296","0","0","2018-11-01 16:07:46","24","665280.00","600000","2018-11-08 08:34:05","","731808.00","0","SQ-000361","2018-11-01 16:07:10","Mutiara Novita","False","Daruma"
"1011214145","Venny","","392298368","Somagede Indonesia","Organization","SO-000318","2018-11-01 16:44:40","Completed","4280000.00","428000.00","0.00","0.00","4280000.00","4708000.00","229","17","NET15","PICKUP","1801200299","0","0","2018-11-01 16:44:42","229","4280000.00","3756750.879999999888241291046142578125","2018-11-06 09:54:09","","4708000.00","0","SQ-000366","2018-11-01 16:44:03","Mutiara Novita","False","Daruma"
"352357483","Yusuf Denny","","","","Personal","SO-000319","2018-11-02 09:49:13","Completed (Paid)","163000.00","16300.00","19000.00","0.00","182000.00","198300.00","1","1","CBD","JNE/Reguler","","0","198300.00","2018-11-05 10:47:34","1","163000.00","130300","2018-11-13 08:20:02","","198300.00","198300","","2018-11-02 09:46:52","Mutiara Novita","False","Daruma"
"578608054","Abdiel","Keliat","","","Personal","SO-000320","2018-11-02 10:14:28","Pending Payment","60000.00","6000.00","30000.00","0.00","90000.00","96000.00","1","1","CBD","JNE/Reguler","","96000.00","0","","0","0.00","0","","","0","0","","2018-11-02 10:10:35","Abdiel Keliat","True","Daruma"
"681993311","Daniel","Tauroz","","","Personal","SO-000321","2018-11-02 11:09:36","Completed (Paid)","228000.00","22800.00","9000.00","0.00","237000.00","259800.00","4","3","CBD","JNE/Reguler","","0","259800.00","2018-11-05 10:46:22","4","228000.00","181000","2018-11-12 11:34:21","","259800.00","259800","","2018-10-31 18:27:31","Daniel Tauroz","True","Daruma"
"947476414","Tomo","","744414493","Tom""S Electric Indonesia","Organization","SO-000322","2018-11-02 11:15:02","Completed (Paid)","850000.00","85000.00","9000.00","0.00","859000.00","944000.00","10","2","CBD","JNE/Reguler","","0","944000.00","2018-11-05 10:44:58","10","850000.00","676000","2018-11-12 11:22:53","","944000.00","944000","","2018-11-02 11:10:55","Mutiara Novita","False","Daruma"
"1623880621","Heni","","1165654058","Adira Kreasi Indonesia","Organization","SO-000323","2018-11-02 13:15:48","Completed","222000.00","22200.00","0.00","0.00","222000.00","244200.00","6","2","NET15","PICKUP","164/XI/2018","0","0","2018-11-02 13:15:49","6","222000.00","199500","2018-11-06 09:59:45","","244200.00","0","SQ-000367","2018-11-02 13:15:09","Mutiara Novita","False","Daruma"
"1100158758","hendry","hendry","","","Personal","SO-000324","2018-11-02 13:50:28","Completed (Paid)","139500.00","13950.00","9000.00","0.00","148500.00","162450.00","1","1","CBD","JNE/Reguler","","0","162450.00","2018-11-02 22:19:11","1","139500.00","100300","2018-11-09 11:21:48","","162450.00","162450","","2018-11-02 13:48:45","hendry hendry","True","Daruma"
"970359856","Marco","","2112748569","Wahana Multi Karya","Organization","SO-000325","2018-11-02 16:45:54","Completed (Paid)","1256000.00","125600.00","0.00","0.00","1256000.00","1381600.00","1","1","CBD","JNE/Reguler","551/X/WMK/2018","0","1381600.00","2018-11-05 09:17:12","1","1256000.00","1004600","2018-11-08 17:02:56","","1381600.00","1381600","SQ-000353","2018-11-02 16:44:00","Mutiara Novita","False","Daruma"
"1455707883","Raymond P.","","278651696","Multikarya Asia Pasifik Raya (Mkapr","Organization","SO-000326","2018-11-05 08:34:03","Canceled","9306900.00","930690.00","0.00","0.00","9306900.00","10237590.00","1","0","CBD","PICKUP","","10237590.00","0","","0","0","0","2018-11-05 08:50:30","Duplicate","0","0","SQ-000372","2018-11-05 08:28:08","Mega Julianti","False","Daruma"
"1076817947","Yunita","","349937645","Cigading Habeam Centre","Organization","SO-000327","2018-11-05 08:39:06","Shipping","5349600.00","534960.00","0.00","0.00","5349600.00","5884560.00","12","2","CBD","JNE/Reguler","182748","0","5884560.00","2018-11-07 14:26:32","0","0.00","0","","","5884560.00","5884560","SQ-000368","2018-11-05 08:38:16","Mutiara Novita","False","Daruma"
"1455707883","Raymond P.","","278651696","Multikarya Asia Pasifik Raya (Mkapr","Organization","SO-000328","2018-11-05 08:51:51","Completed (Paid)","9823950.00","982395.00","0.00","0.00","9823950.00","10806345.00","1","1","CBD","PICKUP","","0","10806345.00","2018-11-06 08:30:39","1","9823950.00","8272100","2018-11-08 16:37:40","","10806345.00","10806345","SQ-000372","2018-11-05 08:50:45","Mega Julianti","False","Daruma"
"1332146003","Candra","Arbiyanto","575658030","Yoshinobu","Organization","SO-000329","2018-11-05 13:52:24","Completed (Paid)","432000.00","43200.00","9000.00","0.00","441000.00","484200.00","40","1","CBD","JNE/Reguler","YSN/010/PO/XI/18","0","484200.00","2018-11-05 15:36:41","40","432000.00","408000","2018-11-13 08:20:33","","484200.00","484200","SQ-000386","2018-11-05 13:51:57","Mutiara Novita","False","Daruma"
"2136704105","Putri","","1485640450","Trit Indonesia","Organization","SO-000330","2018-11-05 14:17:17","Completed (Paid)","1008000.00","100800.00","9000.00","0.00","1017000.00","1117800.00","5","1","CBD","JNE/Reguler","181105101505","0","1117800.00","2018-11-08 10:40:25","5","1008000.00","933500","2018-11-13 08:23:32","","1117800.00","1117800","SQ-000378","2018-11-05 14:16:28","Mutiara Novita","False","Daruma"
"1113398844","Sidiq","","930635513","Sutrakabel Intimandiri","Organization","SO-000331","2018-11-05 15:51:44","Processing","1597500.00","159750.00","72000.00","0.00","1669500.00","1829250.00","2","2","CBD","JNE/Reguler","","0","1829250.00","2018-11-09 14:25:43","0","0.00","0","","","0","0","SQ-000320","2018-11-05 15:27:56","Mega Julianti","False","Daruma"
"634315836","Dhoni","","1288655196","Aplikasi Teknologi Sistem Indonesia","Organization","SO-000332","2018-11-06 08:27:05","Canceled","716000.00","71600.00","0.00","0.00","716000.00","787600.00","48","0","CBD","PICKUP","02/PO/ATSID/XI/D/18","787600.00","0","","0","0","0","2018-11-06 09:34:49","Duplicate","0","0","SQ-000393","2018-11-06 08:26:34","Mutiara Novita","False","Daruma"
"634315836","Dhoni","","1288655196","Aplikasi Teknologi Sistem Indonesia","Organization","SO-000333","2018-11-06 09:34:25","Shipping","716000.00","71600.00","0.00","0.00","716000.00","787600.00","48","11","NET15","PICKUP","02/PO/ATSID/XI/D/18","0","0","2018-11-06 09:34:28","0","0.00","0","","","782100.00","0","SQ-000393","2018-11-06 09:29:43","Mutiara Novita","False","Daruma"
"773423177","Renty","","1390614371","Solutec Daya Mandiri","Organization","SO-000334","2018-11-06 13:21:42","Ready to ship","1008000.00","100800.00","9000.00","0.00","1017000.00","1117800.00","5","1","CBD","JNE/Reguler","PO-DARUMA-180214","0","1117800.00","2018-11-12 16:54:24","0","0.00","0","","","1117800.00","1117800","SQ-000377","2018-11-06 13:20:35","Mega Julianti","False","Daruma"
"805134691","Linda","","919614940","Sinar Surya Sentosa Sejahtera","Organization","SO-000335","2018-11-06 16:53:24","Ready to ship","534600.00","53460.00","18000.00","0.00","552600.00","606060.00","1","1","CBD","JNE/Reguler","","0","606060.00","2018-11-08 08:46:38","0","0.00","0","","","606060.00","606060","","2018-11-06 16:45:54","Mega Julianti","False","Daruma"
"448409322","Loli","","317424398","Kendali Paramita","Organization","SO-000336","2018-11-07 08:26:30","Ready to ship","976650.00","97665.00","0.00","0.00","976650.00","1074315.00","1","1","CBD","PICKUP","012/DAP/18","0","1074315.00","2018-11-09 14:25:07","0","0.00","0","","","1074315.00","1074315","SQ-000365","2018-11-07 08:25:40","Mutiara Novita","False","Daruma"
"1210026375","Lulung","","2093118885","Titani Alam Semesta","Organization","SO-000337","2018-11-07 09:18:03","Pending Payment","164000.00","16400.00","19000.00","0.00","183000.00","199400.00","2","1","CBD","JNE/Reguler","KP/PMB","199400.00","0","","0","0.00","0","","","0","0","SQ-000395","2018-11-07 09:17:28","Mutiara Novita","False","Daruma"
"1893490572","Rini","","247269301","Dunia Tehnik Jaya","Organization","SO-000338","2018-11-07 09:34:08","Completed (Paid)","291600.00","29160.00","22000.00","0.00","313600.00","342760.00","1","1","CBD","JNE/YES","013/DTJ-PO/DAP/XI/2018","0","342760.00","2018-11-07 11:31:56","1","291600.00","210300","2018-11-13 08:21:34","","342760.00","342760","SQ-000404","2018-11-07 09:33:07","Mutiara Novita","False","Daruma"
"742903100","Herman","","324832836","Sumatera Dinamika Sejahtera","Organization","SO-000339","2018-11-07 10:02:30","Processing","33180000.00","3318000.00","0.00","0.00","33180000.00","36498000.00","5","2","CBD","PICKUP","PO-SDS-034/2018","36498000.00","0","2018-11-12 16:53:16","0","0.00","0","","","0","0","SQ-000402","2018-11-07 10:01:27","Mutiara Novita","False","Daruma"
"1150852591","Franciscus Effendy","","","","Personal","SO-000340","2018-11-07 13:23:47","Completed (Paid)","138000.00","13800.00","9000.00","0.00","147000.00","160800.00","4","1","CBD","JNE/Reguler","Order tokopedia","0","160800.00","2018-11-07 14:30:04","4","138000.00","110400","2018-11-13 08:22:25","","160800.00","160800","","2018-11-07 13:22:24","Mutiara Novita","False","Daruma"
"1900134683","Adhika","Hendrianto","854057548","Buana Inti Multi Anugerah","Organization","SO-000341","2018-11-08 08:32:51","Processing","1960000.00","196000.00","27000.00","0.00","1987000.00","2183000.00","20","1","CBD","JNE/Reguler","","0","2183000.00","2018-11-08 08:46:59","0","0.00","0","","","0","0","","2018-11-08 08:31:20","Mutiara Novita","False","Daruma"
"383678762","Intan","Andhini","","","Personal","SO-000342","2018-11-08 09:09:53","Pending Payment","227700.00","22770.00","9000.00","0.00","236700.00","259470.00","1","1","CBD","JNE/Reguler","","259470.00","0","","0","0.00","0","","","0","0","","2018-11-01 14:08:40","Intan Andhini","True","Daruma"
"1420126805","Windi","","1916482548","Asta Mitra Cemerlang","Organization","SO-000343","2018-11-08 11:34:28","Processing","4716900.00","471690.00","0.00","0.00","4716900.00","5188590.00","1","1","CBD","JNE/Reguler","05/PO/AMC/XI/2018","0","5188590.00","2018-11-08 14:15:41","0","0.00","0","","","0","0","SQ-000414","2018-11-08 11:33:58","Mutiara Novita","False","Daruma"
"1508690451","Ekki Iqbal","","190370335","Desalite Tirtamas Teknologi","Organization","SO-000344","2018-11-08 13:46:48","Completed (Paid)","502200.00","50220.00","0.00","0.00","502200.00","552420.00","1","1","CBD","PICKUP","081118","0","552420.00","2018-11-08 14:31:36","1","502200.00","362400","2018-11-12 08:42:28","","552420.00","552420","SQ-000416","2018-11-08 13:43:12","Mega Julianti","False","Daruma"
"1340705405","Ahsin","Usman","","","Personal","SO-000345","2018-11-08 15:28:40","Pending Payment","175000.00","17500.00","18000.00","0.00","193000.00","210500.00","1","1","CBD","JNE/Reguler","","210500.00","0","","0","0.00","0","","","0","0","","2018-11-08 15:25:35","Ahsin Usman","True","Daruma"
"2003890599","Denny","","834867689","Kantor Pelayanan Penyuluhan Dan Konsultasi Perpajakan.Bintuhan","Organization","SO-000346","2018-11-09 08:45:24","Completed (Paid)","12245000.00","1224500.00","54000.00","0.00","12299000.00","13523500.00","1","1","CBD","JNE/Reguler","","0","13523500.00","2018-11-09 13:12:13","1","12245000.00","12000000","2018-11-12 08:42:35","","13523500.00","13523500","SQ-000412","2018-11-09 08:44:03","Mega Julianti","False","Daruma"
"536246040","Agus","","516310689","Yamada Indonesia","Organization","SO-000347","2018-11-09 10:25:16","Processing","1010000.00","101000.00","0.00","0.00","1010000.00","1111000.00","10","1","CBD","JNE/Reguler","PTDAP-02-PTYI.2-XI-2018","0","1111000.00","2018-11-09 13:25:41","0","0.00","0","","","0","0","SQ-000420","2018-11-09 10:22:26","Mega Julianti","False","Daruma"
"2060438918","Tatang","","1986730850","Sinar Anugrah Bersama","Organization","SO-000348","2018-11-09 13:23:21","Ready to ship","1934295.00","193429.50","54000.00","0.00","1988295.00","2181724.50","9","3","CBD","JNE/Reguler","0020/SAB-PO/XI/18","0","2181725.00","2018-11-09 14:51:12","0","0.00","0","","","2181724.50","2181724.50","SQ-000425","2018-11-09 13:22:31","Mutiara Novita","False","Daruma"
"1865680437","Arie","Putranto","","","Personal","SO-000349","2018-11-09 14:01:53","Canceled","31000.00","3100.00","18000.00","0.00","49000.00","52100.00","1","1","CBD","JNE/YES","","52100.00","0","","0","0.00","0","2018-11-09 14:45:32","Duplicate","0","0","","2018-11-09 11:19:01","Arie Putranto","True","Daruma"
"1865680437","Arie","Putranto","","","Personal","SO-000350","2018-11-09 14:07:06","Canceled","31000.00","3100.00","18000.00","0.00","49000.00","52100.00","1","1","CBD","JNE/YES","","52100.00","0","","0","0.00","0","2018-11-09 14:46:09","Duplicate","0","0","","2018-11-09 14:06:38","Arie Putranto","True","Daruma"
"1876103377","Arie","Putranto","1683396654","Wira Jasa Angkasa","Organization","SO-000351","2018-11-09 14:43:14","Processing","31000.00","3100.00","18000.00","0.00","49000.00","52100.00","1","1","CBD","JNE/YES","","0","52100.00","2018-11-09 14:51:30","0","0.00","0","","","0","0","","2018-11-09 14:33:48","Mutiara Novita","False","Daruma"
"1031588944","Mohammad Khafid","Arofii","","","Personal","SO-000352","2018-11-12 11:35:58","Pending Payment","476000.00","47600.00","9000.00","0.00","485000.00","532600.00","2","1","CBD","JNE/Reguler","","532600.00","0","","0","0.00","0","","","0","0","","2018-11-12 11:35:20","Mohammad Khafid Arofii","True","Daruma"
"1171225076","Indah","","2037701746","Mitratama Global Solusindo","Organization","SO-000353","2018-11-12 13:19:22","Processing","820000.00","82000.00","0.00","0.00","820000.00","902000.00","2","1","CBD","JNE/Reguler","089/PO/MGS/XI/2018","0","902000.00","2018-11-12 15:01:50","0","0.00","0","","","0","0","SQ-000434","2018-11-12 13:18:26","Mutiara Novita","False","Daruma"
"745576582","Anisa","Kurniasani","","","Personal","SO-000354","2018-11-12 14:44:14","Processing","50000.00","5000.00","9000.00","0.00","59000.00","64000.00","1","1","CBD","JNE/Reguler","","0","64000.00","2018-11-12 16:54:58","0","0.00","0","","","0","0","","2018-11-12 14:41:17","Anisa Kurniasani","True","Daruma"
"1837831546","Stefan","Van Den Hende","1238282385","PT LAVATEXTILES BVBA INDONESIA","Organization","SO-000355","2018-11-12 16:40:02","Shipping","264000.00","26400.00","72000.00","0.00","336000.00","362400.00","2","1","CBD","JNE/YES","","0","362400.00","2018-11-12 16:42:21","0","0.00","0","","","362400.00","362400","","2018-11-12 16:39:30","Stefan Van Den Hende","True","Daruma"
"1787876246","Rusdiono","Rusdiono","","","Personal","SO-000356","2018-11-13 01:18:53","Pending Payment","389200.00","38920.00","19000.00","0.00","408200.00","447120.00","1","1","CBD","JNE/Reguler","","447120.00","0","","0","0.00","0","","","0","0","","2018-11-13 01:13:26","Rusdiono Rusdiono","True","Daruma"
"592233347","Widya","Putra","","","Personal","SO-000357","2018-11-13 01:49:57","Processing","466000.00","46600.00","18000.00","0.00","484000.00","530600.00","3","2","CBD","JNE/YES","","0","530600.00","2018-11-13 08:28:23","0","0.00","0","","","0","0","","2018-11-13 01:45:38","Widya Putra","True","Daruma"
"98994319","Monica","","969769894","Blacksteel Properties","Organization","SO-000358","2018-11-13 15:24:02","Pending Payment","522000.00","52200.00","9000.00","0.00","531000.00","583200.00","2","1","CBD","JNE/Reguler","6399","583200.00","0","","0","0.00","0","","","0","0","SQ-000436","2018-11-13 15:23:26","Mutiara Novita","False","Daruma"
"681738446","Ganny","","1333554832","Mandiri Steel","Organization","SO-000359","2018-11-13 15:31:38","Canceled","4403000.00","440300.00","0.00","0.00","4403000.00","4843300.00","17","0","CBD","JNE/Reguler","","4843300.00","0","","0","0","0","2018-11-13 16:49:14","Duplicate","0","0","SQ-000437","2018-11-13 15:30:56","Mega Julianti","False","Daruma"
"2060605556","Tini","","1405800355","Zeus Component Indonesia","Organization","SO-000360","2018-11-13 16:37:55","Pending Payment","734000.00","73400.00","0.00","0.00","734000.00","807400.00","1","1","CBD","PICKUP","20181113","807400.00","0","","0","0.00","0","","","0","0","SQ-000381","2018-11-13 16:36:57","Mutiara Novita","False","Daruma"
"681738446","Ganny","","1333554832","Mandiri Steel","Organization","SO-000361","2018-11-13 16:48:28","Pending Payment","4403000.00","440300.00","0.00","0.00","4403000.00","4843300.00","17","2","CBD","PICKUP","","4843300.00","0","","0","0.00","0","","","0","0","SQ-000437","2018-11-13 16:47:39","Mega Julianti","False","Daruma"
