"order__order_no"	"order__order_date"	"order__status"	"order__cancel_reason"	"order__processing_date"	"product__uid"	"product__catalog_code"	"product__name"	"product__brand_name"	"product__mpn"	"product__primary_image_url"	"ordered_quantity"	"price_before_discount"	"price"	"total"	"delivered_quantity"	"delivered_total_price"	"delivered_total_cost"	"availability__stock_quantity"	"availability__indent_quantity"	"availability_text"	"order__store"
"SO-000205"	"2018-10-01 09:40:51"	"Completed (Paid)"	""	"2018-10-01 10:19:46"	"1373837081"	"L007-0045"	"Henkel Loctite 350 Adhesive, UV, Methacrylate Ester, 50g Bottle"	"Loctite"	""	"https://media.daruma.co.id/images/products/t/13/henkel-loctite-350-adhesive-uv-methacrylate-ester-50g-bottle-image.jpg"	"2"	"181800.00"	"181800.00"	"363600.00"	"2"	"363600.00"	"261400"	"2"	"0"	"Ready (1-3 Days)"	"Daruma"
"SO-000206"	"2018-10-01 11:23:48"	"Ready to ship"	""	"2018-10-01 15:40:34"	"397146039"	"T001-5346"	"Trusco Steel Long Eye Bolt, TAB640L, 275-7681"	"Trusco"	""	"https://media.daruma.co.id/images/products/t/39/steel-long-eye-bolt-275-7681-image.jpg"	"12"	"18000.00"	"18000.00"	"216000.00"	"0"	"0.00"	"0"	"1"	"11"	"Ready 1 (1-3 Days), Indent 11 (15-40 Days)"	"Daruma"
"SO-000207"	"2018-10-02 11:49:22"	"Canceled"	"Not paid"	""	"632394673"	"M048-0106"	"3M Organic Vapor Cartridge with filter (Filter Masker), 3311K-55"	"3M"	""	"https://media.daruma.co.id/images/products/t/63/3311k-55-organic-vapor-cartridge-with-filter-image.jpg"	"10"	"102000.00"	"86700.00"	"867000.00"	"0"	"0.00"	"0"	"10"	"0"	"Ready (1-3 Days)"	"Daruma"
"SO-000208"	"2018-10-02 14:15:00"	"Completed (Paid)"	""	"2018-10-02 15:45:11"	"619292684"	"T001-5266"	"Trusco Aluminum Stepladder, TPRK120, 273-7591"	"Trusco"	""	"https://media.daruma.co.id/images/products/t/61/aluminum-stepladder-273-7591-image.jpg"	"1"	"2208000.00"	"2208000.00"	"2208000.00"	"1"	"2208000.00"	"1711200"	"1"	"0"	"Ready (1-3 Days)"	"Daruma"
"SO-000209"	"2018-10-02 15:25:06"	"Completed (Paid)"	""	"2018-10-03 08:16:31"	"632394673"	"M048-0106"	"3M Organic Vapor Cartridge with filter (Filter Masker), 3311K-55"	"3M"	""	"https://media.daruma.co.id/images/products/t/63/3311k-55-organic-vapor-cartridge-with-filter-image.jpg"	"10"	"102000.00"	"86700.00"	"867000.00"	"10"	"867000.00"	"816000"	"10"	"0"	"Ready (1-3 Days)"	"Daruma"
"SO-000210"	"2018-10-02 16:36:40"	"Completed (Paid)"	""	"2018-10-03 08:17:04"	"2118214795"	"T001-7398"	"Trusco Grinding Wheel, TFW10025120 , 768-2921"	"Trusco"	""	"https://media.daruma.co.id/images/products/t/21/trusco-grinding-wheel-tfw10025120-768-2921-image.jpg"	"1"	"309000.00"	"309000.00"	"309000.00"	"1"	"309000.00"	"239200"	"1"	"0"	"Ready (1-3 Days)"	"Daruma"
"SO-000211"	"2018-10-03 08:21:02"	"Completed (Paid)"	""	"2018-10-03 14:15:34"	"469386333"	"A004-0001"	"Asahipen Oilless Air-Compressor, 210777, 751-3682"	"Asahipen"	""	"https://media.daruma.co.id/images/products/t/46/oilless-air-compressor-751-3682-image.jpg"	"1"	"4132000.00"	"3925400.00"	"3925400.00"	"1"	"3925400.00"	"3305200"	"1"	"0"	"Ready (1-3 Days)"	"Daruma"
"SO-000212"	"2018-10-03 14:15:23"	"Canceled"	"No available stock"	""	"227496671"	"U005-0114"	"Uni by Mitsubishi Pencil Paint Marker, PX20.33 , 337-1140"	"Uni by Mitsubishi Pencil"	""	"https://media.daruma.co.id/images/products/t/22/uni-by-mitsubishi-pencil-paint-marker-px20-33-337-1140-image.jpg"	"12"	"30000.00"	"30000.00"	"360000.00"	"0"	"0.00"	"0"	"1"	"11"	"Ready 1 (1-3 Days), Indent 11 (15-40 Days)"	"Daruma"
"SO-000213"	"2018-10-04 06:25:21"	"Pending Payment"	""	""	"500148078"	"T062-3280"	"Trusco 3 Fingers Cow Split Leather Welding Glove, TYKT3 , 253-8431"	"Trusco"	""	"https://media.daruma.co.id/images/products/t/50/trusco-3-fingers-cow-split-leather-welding-glove-tykt3-253-8431-image.jpg"	"1"	"205000.00"	"205000.00"	"205000.00"	"0"	"0.00"	"0"	"1"	"0"	"Ready (1-3 Days)"	"Daruma"
"SO-000214"	"2018-10-04 08:34:25"	"Pending Payment"	""	""	"1501117379"	"F014-0014"	"Fuji Air Straight Grinder, FG3H2, 124-9959"	"Fuji"	""	"https://media.daruma.co.id/images/products/t/15/air-straight-grinder-124-9959-image.jpg"	"1"	"4154000.00"	"4154000.00"	"4154000.00"	"0"	"0.00"	"0"	"1"	"0"	"Ready (1-3 Days)"	"Daruma"
"SO-000215"	"2018-10-04 09:06:26"	"Pending Payment"	""	""	"1501117379"	"F014-0014"	"Fuji Air Straight Grinder, FG3H2, 124-9959"	"Fuji"	""	"https://media.daruma.co.id/images/products/t/15/air-straight-grinder-124-9959-image.jpg"	"1"	"4154000.00"	"4154000.00"	"4154000.00"	"0"	"0.00"	"0"	"1"	"0"	"Ready (1-3 Days)"	"Daruma"
"SO-000216"	"2018-10-04 11:14:42"	"Completed (Paid)"	""	"2018-10-04 14:41:56"	"1890566762"	"K027-0012"	"Kawasimo Chuck Mate(Soft-Jaw type forming Fixture), P1020 , 156-6687"	"Kawasimo"	""	"https://media.daruma.co.id/images/products/t/18/kawasimo-chuck-mate-soft-jaw-type-forming-fixture-p1020-156-6687-image.jpg"	"1"	"4384000.00"	"4384000.00"	"4384000.00"	"1"	"4384000.00"	"3506900"	"1"	"0"	"Ready (1-3 Days)"	"Daruma"
"SO-000217"	"2018-10-04 11:40:31"	"Completed (Paid)"	""	"2018-10-10 08:29:11"	"2143299577"	"Z004-0014"	"Zebra Barcode Printer GK420d"	"Zebra"	""	"https://media.daruma.co.id/images/products/t/21/zebra-printer-gk420d-image.jpg"	"1"	"5063000.00"	"4500000.00"	"4500000.00"	"1"	"4500000.00"	"4050000"	"1"	"0"	"Ready (1-3 Days)"	"Daruma"
"SO-000218"	"2018-10-04 14:17:58"	"Completed (Paid)"	""	"2018-10-04 14:30:54"	"1868867154"	"D022-0027"	"Dextone Silicone Sealant Tabung Netral Clear"	"Dextone"	""	"https://media.daruma.co.id/images/products/t/18/dextone-silicone-sealant-tabung-netral-clear-image.jpg"	"40"	"44000.00"	"41800.00"	"1672000.00"	"40"	"1672000.00"	"1440000"	"40"	"0"	"Ready (1-3 Days)"	"Daruma"
"SO-000219"	"2018-10-07 18:49:02"	"Processing"	""	"2018-10-08 16:01:50"	"210808406"	"T001-3853"	"Trusco Stopwatch, T709RN, 415-2166"	"Trusco"	""	"https://media.daruma.co.id/images/products/t/21/stopwatch-415-2166-image.jpg"	"1"	"372000.00"	"372000.00"	"372000.00"	"0"	"0.00"	"0"	"1"	"0"	"Ready (1-3 Days)"	"Daruma"
"SO-000220"	"2018-10-07 22:38:53"	"Pending Payment"	""	""	"112280813"	"J002-0005"	"Johnan High Performance Liquid Absorbent ABURATORU, PC50T, 406-4526"	"Johnan"	""	"https://media.daruma.co.id/images/products/t/11/high-performance-liquid-absorbent-aburatoru-406-4526-image.jpg"	"1"	"533000.00"	"533000.00"	"533000.00"	"0"	"0.00"	"0"	"1"	"0"	"Ready (1-3 Days)"	"Daruma"
"SO-000221"	"2018-10-08 08:53:12"	"Completed (Paid)"	""	"2018-10-08 16:02:20"	"837905314"	"U005-0191"	"Uni by Mitsubishi Pencil Paint Marker, PX21.15 , 441-8875"	"Uni by Mitsubishi Pencil"	"PX21.15"	"https://media.daruma.co.id/images/products/t/83/uni-by-mitsubishi-pencil-paint-marker-px21-15-441-8875-image.jpg"	"4"	"30000.00"	"30000.00"	"120000.00"	"4"	"120000.00"	"95200"	"4"	"0"	"Ready (1-3 Days)"	"Daruma"
"SO-000222"	"2018-10-08 13:40:50"	"Completed (Paid)"	""	"2018-10-08 16:02:04"	"378902210"	"T001-6204"	"Trusco Needle for Air Chisel, 3180, 152-6448"	"Trusco"	""	"https://media.daruma.co.id/images/products/t/37/needle-for-air-chisel-152-6448-image.jpg"	"4"	"1189000.00"	"1129550.00"	"4518200.00"	"4"	"4518200.00"	"3684800"	"4"	"0"	"Ready (1-3 Days)"	"Daruma"
"SO-000223"	"2018-10-08 15:00:50"	"Completed (Paid)"	""	"2018-10-10 15:02:03"	"836426144"	"T001-6861"	"Trusco Stainless Hinge(Hole), TKH50CA, 279-6112"	"Trusco"	""	"https://media.daruma.co.id/images/products/t/83/stainless-hinge-hole-279-6112-image.jpg"	"2"	"54000.00"	"54000.00"	"108000.00"	"2"	"108000.00"	"83600"	"1"	"1"	"Ready 1 (1-3 Days), Indent 1 (15-40 Days)"	"Daruma"
"SO-000224"	"2018-10-09 09:54:29"	"Completed (Paid)"	""	"2018-10-09 10:03:55"	"474213654"	"S063-0008"	"Sanwa Mini Ball Valve (Stop Kran), Model BV 15 MF, Size 1/2"""	"Sanwa"	""	"https://media.daruma.co.id/images/products/t/47/sanwa-mini-ball-valve-model-bv-15-mf-size-1-2-image.jpg"	"1"	"34500.00"	"34500.00"	"34500.00"	"1"	"34500.00"	"27600"	"1"	"0"	"Ready (1-3 Days)"	"Daruma"
"SO-000225"	"2018-10-10 08:36:25"	"Completed (Paid)"	""	"2018-10-10 15:39:57"	"209790949"	"V002-0492"	"Vessel Socket Adaptor, 12.7 mm, 59 mm, A20BSQ4-6080, 371-1480"	"Vessel"	""	"https://media.daruma.co.id/images/products/t/20/socket-adaptor-371-1480-image.jpg"	"5"	"110000.00"	"110000.00"	"550000.00"	"5"	"550000.00"	"436500"	"2"	"3"	"Ready 2 (1-3 Days), Indent 3 (15-40 Days)"	"Daruma"
"SO-000226"	"2018-10-10 14:06:20"	"Canceled"	"Duplicate"	""	"2031001654"	"M048-0074"	"3M PELTOR Optime 98 Cap-Mount Earmuffs (Pelindung Telinga), Hearing Conservation, H9P3E"	"3M"	""	"https://media.daruma.co.id/images/products/t/20/3m-peltor-optime-98-cap-mount-earmuffs-hearing-conservation-h9p3e-image.jpg"	"2"	"427000.00"	"427000.00"	"854000.00"	"0"	"0.00"	"0"	"2"	"0"	"Ready (1-3 Days)"	"Daruma"
"SO-000227"	"2018-10-10 15:24:20"	"Completed (Paid)"	""	"2018-10-11 09:02:45"	"534963823"	"T053-0005"	"Tokinarc Tip Type N Size 1.2mm, 002003"	"Tokinarc"	"2003"	"https://media.daruma.co.id/images/products/t/53/tip-type-n-size-1-2mm-image.jpg"	"1000"	"12000.00"	"12000.00"	"12000000.00"	"1000"	"12000000.00"	"10200000"	"1000"	"0"	"Ready (1-3 Days)"	"Daruma"
"SO-000228"	"2018-10-10 16:25:07"	"Completed (Paid)"	""	"2018-10-11 09:04:12"	"1845261918"	"T001-3307"	"Trusco Aluminum LED Light, 10 lm, TAL21ANB-8037, 374-5911"	"Trusco"	""	"https://media.daruma.co.id/images/products/t/18/aluminum-led-light-374-5911-image.jpg"	"1"	"274000.00"	"246600.00"	"246600.00"	"1"	"246600.00"	"212100"	"1"	"0"	"Ready (1-3 Days)"	"Daruma"
"SO-000228"	"2018-10-10 16:25:07"	"Completed (Paid)"	""	"2018-10-11 09:04:12"	"2096988990"	"T001-3309"	"Trusco Aluminum LED Light, 10 lm, TAL21ANGN-8037, 374-5937"	"Trusco"	""	"https://media.daruma.co.id/images/products/t/20/aluminum-led-light-374-5937-image.jpg"	"7"	"274000.00"	"246600.00"	"1726200.00"	"7"	"1726200.00"	"1484700"	"7"	"0"	"Ready (1-3 Days)"	"Daruma"
"SO-000229"	"2018-10-10 20:38:13"	"Completed (Paid)"	""	"2018-10-11 13:26:01"	"2105176717"	"S030-0002"	"Sato Keiryouki Bimetal Thermometer for Asphalt, 215020, 451-0046"	"Sato Keiryouki"	""	"https://media.daruma.co.id/images/products/t/21/bimetal-thermometer-for-asphalt-451-0046-image.jpg"	"1"	"561000.00"	"561000.00"	"561000.00"	"1"	"561000.00"	"448300"	"1"	"0"	"Ready (1-3 Days)"	"Daruma"
"SO-000230"	"2018-10-11 11:25:27"	"Completed (Paid)"	""	"2018-10-11 13:26:19"	"904080507"	"K039-0020"	"King Jim Tepra PRO Tape Cartridge, SC9Y, 005-1641"	"King Jim"	""	"https://media.daruma.co.id/images/products/t/90/tepra-pro-tape-cartridge-005-1641-image.jpg"	"2"	"137000.00"	"137000.00"	"274000.00"	"2"	"274000.00"	"218800"	"2"	"0"	"Ready (1-3 Days)"	"Daruma"
"SO-000231"	"2018-10-11 13:38:30"	"Completed (Paid)"	""	"2018-10-11 14:43:06"	"904080507"	"K039-0020"	"King Jim Tepra PRO Tape Cartridge, SC9Y, 005-1641"	"King Jim"	""	"https://media.daruma.co.id/images/products/t/90/tepra-pro-tape-cartridge-005-1641-image.jpg"	"5"	"137000.00"	"137000.00"	"685000.00"	"5"	"685000.00"	"547000"	"5"	"0"	"Ready (1-3 Days)"	"Daruma"
"SO-000232"	"2018-10-11 22:25:19"	"Completed (Paid)"	""	"2018-10-12 08:58:19"	"325608858"	"K039-0017"	"King Jim Tepra PRO Tape Cartridge, SC36Y, 304-1069"	"King Jim"	""	"https://media.daruma.co.id/images/products/t/32/tepra-pro-tape-cartridge-304-1069-image.jpg"	"2"	"274000.00"	"274000.00"	"548000.00"	"2"	"548000.00"	"437400"	"2"	"0"	"Ready (1-3 Days)"	"Daruma"
"SO-000233"	"2018-10-12 08:32:39"	"Processing"	""	"2018-11-12 05:20:55"	"1381539492"	"T001-3737"	"Trusco L type Clamp, 600 mm, GHLB600-3100, 128-9446"	"Trusco"	""	"https://media.daruma.co.id/images/products/t/13/l-type-clamp-128-9446-image.jpg"	"4"	"2736000.00"	"2599200.00"	"10396800.00"	"0"	"0.00"	"0"	"4"	"0"	"Ready (1-3 Days)"	"Daruma"
"SO-000233"	"2018-10-12 08:32:39"	"Processing"	""	"2018-11-12 05:20:55"	"436771538"	"T001-3735"	"Trusco L type Clamp, 300 mm, GHLB300-3100, 128-9420"	"Trusco"	""	"https://media.daruma.co.id/images/products/t/43/l-type-clamp-128-9420-image.jpg"	"4"	"1866000.00"	"1772700.00"	"7090800.00"	"0"	"0.00"	"0"	"3"	"1"	"Ready 3 (1-3 Days), Indent 1 (15-40 Days)"	"Daruma"
"SO-000234"	"2018-10-12 13:15:46"	"Completed (Paid)"	""	"2018-10-15 09:05:58"	"1347916462"	"T062-2443"	"Trusco PP Belt, PPB5010 , 273-7477"	"Trusco"	""	"https://media.daruma.co.id/images/products/t/13/trusco-pp-belt-ppb5010-273-7477-image.jpg"	"1"	"440000.00"	"440000.00"	"440000.00"	"1"	"440000.00"	"340800"	"1"	"0"	"Ready (1-3 Days)"	"Daruma"
"SO-000234"	"2018-10-12 13:15:46"	"Completed (Paid)"	""	"2018-10-15 09:05:58"	"365700303"	"T062-2543"	"Trusco PP Belt, PPB5010 , 383-0268"	"Trusco"	""	"https://media.daruma.co.id/images/products/t/36/trusco-pp-belt-ppb5010-383-0268-image.jpg"	"1"	"440000.00"	"440000.00"	"440000.00"	"1"	"440000.00"	"340800"	"1"	"0"	"Ready (1-3 Days)"	"Daruma"
"SO-000235"	"2018-10-12 13:29:19"	"Completed (Paid)"	""	"2018-10-12 14:12:08"	"734924072"	"K039-0061"	"Kim Jing Tepra PRO Tape Cartridge, SC18P , 385-9096"	"King Jim"	""	"https://media.daruma.co.id/images/products/t/73/kim-jing-tepra-pro-tape-cartridge-sc18p-385-9096-image.jpg"	"3"	"182000.00"	"182000.00"	"546000.00"	"3"	"546000.00"	"436200"	"1"	"2"	"Ready 1 (1-3 Days), Indent 2 (15-40 Days)"	"Daruma"
"SO-000235"	"2018-10-12 13:29:19"	"Completed (Paid)"	""	"2018-10-12 14:12:08"	"479467109"	"K039-0031"	"Kim Jing Tepra PRO Tape Cartridge, SP24K , 304-1026"	"King Jim"	""	"https://media.daruma.co.id/images/products/t/47/kim-jing-tepra-pro-tape-cartridge-sp24k-304-1026-image.jpg"	"3"	"182000.00"	"182000.00"	"546000.00"	"3"	"546000.00"	"436200"	"1"	"2"	"Ready 1 (1-3 Days), Indent 2 (15-40 Days)"	"Daruma"
"SO-000235"	"2018-10-12 13:29:19"	"Completed (Paid)"	""	"2018-10-12 14:12:08"	"1662391498"	"K039-0170"	"Kim Jing Tepra PRO Tape Cartridge, SS12KE , 431-2724"	"King Jim"	""	"https://media.daruma.co.id/images/products/t/16/kim-jing-tepra-pro-tape-cartridge-ss12ke-431-2724-image.jpg"	"2"	"130000.00"	"130000.00"	"260000.00"	"2"	"260000.00"	"207800"	"1"	"1"	"Ready 1 (1-3 Days), Indent 1 (15-40 Days)"	"Daruma"
"SO-000235"	"2018-10-12 13:29:19"	"Completed (Paid)"	""	"2018-10-12 14:12:08"	"24197471"	"K039-0167"	"Kim Jing Tepra PRO Tape Cartridge, SC18YE , 431-2694"	"King Jim"	""	"https://media.daruma.co.id/images/products/t/24/kim-jing-tepra-pro-tape-cartridge-sc18ye-431-2694-image.jpg"	"3"	"182000.00"	"182000.00"	"546000.00"	"3"	"546000.00"	"436200"	"1"	"2"	"Ready 1 (1-3 Days), Indent 2 (15-40 Days)"	"Daruma"
"SO-000236"	"2018-10-12 15:47:21"	"Completed (Paid)"	""	"2018-10-16 14:01:59"	"1063358373"	"T062-4784"	"Trusco Point Tap, THPOM4X0.7, 391-2973"	"Trusco"	""	"https://media.daruma.co.id/images/products/t/10/trusco-point-tap-thpom4x0-7-391-2973-image.jpg"	"10"	"96000.00"	"96000.00"	"960000.00"	"10"	"960000.00"	"740000"	"0"	"10"	"Indent (15-40 Days)"	"Daruma"
"SO-000237"	"2018-10-12 16:54:05"	"Canceled"	"Duplicate"	""	"1497537239"	"T051-0004"	"Tsuyoron Belblock, BB80SN, 444-9282"	"Tsuyoron"	""	"https://media.daruma.co.id/images/products/t/14/tsuyoron-belblock-bb80sn-444-9282-image.jpg"	"3"	"5403000.00"	"5132850.00"	"15398550.00"	"0"	"0.00"	"0"	"3"	"0"	"Ready (1-3 Days)"	"Daruma"
"SO-000238"	"2018-10-13 06:22:57"	"Pending Payment"	""	""	"1595580514"	"S060-0004"	"Swipe-All S70 Quarter Fold 28x35cm (Lap Serbaguna), 79960"	"Swipeall"	""	"https://media.daruma.co.id/images/products/t/15/swipe-all-s70-quarter-fold-28-x-35-cm-image.jpg"	"10"	"575000.00"	"575000.00"	"5750000.00"	"0"	"0.00"	"0"	"10"	"0"	"Ready (1-3 Days)"	"Daruma"
"SO-000239"	"2018-10-15 08:43:20"	"Completed (Paid)"	""	"2018-10-15 09:03:45"	"1497537239"	"T051-0004"	"Tsuyoron Belblock, BB80SN, 444-9282"	"Tsuyoron"	""	"https://media.daruma.co.id/images/products/t/14/tsuyoron-belblock-bb80sn-444-9282-image.jpg"	"3"	"5403000.00"	"5132850.00"	"15398550.00"	"3"	"15398550.00"	"12966900"	"3"	"0"	"Ready (1-3 Days)"	"Daruma"
"SO-000240"	"2018-10-15 09:46:41"	"Completed (Paid)"	""	"2018-10-17 08:29:45"	"228604268"	"K050-0004"	"Kamoi Masking Tape, KABUKISJAN15 , 308-5422"	"Kamoi"	""	"https://media.daruma.co.id/images/products/t/22/kamoi-masking-tape-kabukisjan15-308-5422-image.jpg"	"1"	"76000.00"	"76000.00"	"76000.00"	"1"	"76000.00"	"60300"	"1"	"0"	"Ready (1-3 Days)"	"Daruma"
"SO-000241"	"2018-10-15 10:39:29"	"Completed (Paid)"	""	"2018-10-16 09:05:36"	"2031001654"	"M048-0074"	"3M PELTOR Optime 98 Cap-Mount Earmuffs (Pelindung Telinga), Hearing Conservation, H9P3E"	"3M"	""	"https://media.daruma.co.id/images/products/t/20/3m-peltor-optime-98-cap-mount-earmuffs-hearing-conservation-h9p3e-image.jpg"	"2"	"427000.00"	"427000.00"	"854000.00"	"2"	"854000.00"	"761400"	"2"	"0"	"Ready (1-3 Days)"	"Daruma"
"SO-000241"	"2018-10-15 10:39:29"	"Completed (Paid)"	""	"2018-10-16 09:05:36"	"510106973"	"M048-0046"	"3M Hard Hat (Helm Safety), Yellow, H-702R,7000002415"	"3M"	""	"https://media.daruma.co.id/images/products/t/51/3m-hard-hat-h-702r-yellow-4-point-ratchet-suspension-image.jpg"	"8"	"231000.00"	"196350.00"	"1570800.00"	"8"	"1570800.00"	"1475600"	"8"	"0"	"Ready (1-3 Days)"	"Daruma"
"SO-000241"	"2018-10-15 10:39:29"	"Completed (Paid)"	""	"2018-10-16 09:05:36"	"1942057379"	"M048-0050"	"3M Chin Strap, 1990"	"3M"	""	"https://media.daruma.co.id/images/products/t/19/3m-chin-strap-1990-image.jpg"	"1"	"186000.00"	"158100.00"	"158100.00"	"1"	"158100.00"	"148750"	"1"	"0"	"Ready (1-3 Days)"	"Daruma"
"SO-000242"	"2018-10-15 11:24:49"	"Completed (Paid)"	""	"2018-10-16 08:05:18"	"1011634156"	"L007-0119"	"Henkel Loctite 263 Threadlocker Anaerobic Adhesive Red 50 ml Bottle"	"Loctite"	""	"https://media.daruma.co.id/images/products/t/10/henkel-loctite-263-threadlocker-anaerobic-adhesive-red-50-ml-bottle-image.jpg"	"2"	"304200.00"	"304200.00"	"608400.00"	"2"	"608400.00"	"0"	"2"	"0"	"Ready (1-3 Days)"	"Daruma"
"SO-000243"	"2018-10-15 11:32:25"	"Canceled"	"Duplicate"	""	"781506613"	"S063-0009"	"Sanwa Mini Ball Valve (Stop Kran), Model BV 15 MM, Size 1/2"""	"Sanwa"	""	"https://media.daruma.co.id/images/products/t/78/sanwa-mini-ball-valve-model-bv-15-mm-size-1-2-image.jpg"	"15"	"34500.00"	"34500.00"	"517500.00"	"0"	"0.00"	"0"	"15"	"0"	"Ready (1-3 Days)"	"Daruma"
"SO-000244"	"2018-10-15 13:44:04"	"Canceled"	"Requested by customer"	"2018-10-15 15:34:38"	"1505802967"	"H003-0003"	"Hozan Pliers for crimping, P732, 120-4513"	"Hozan"	""	"https://media.daruma.co.id/images/products/t/15/pliers-for-crimping-120-4513-image.jpg"	"1"	"955000.00"	"955000.00"	"955000.00"	"0"	"0.00"	"0"	"1"	"0"	"Ready (1-3 Days)"	"Daruma"
"SO-000245"	"2018-10-15 14:39:05"	"Completed (Paid)"	""	"2018-10-15 15:42:46"	"1363491503"	"K050-0002"	"Kamoi Masking Tape for Sealing, 21 mm x 18 m, 3303HGJAN21-2309, 330-1478"	"Kamoi"	""	"https://media.daruma.co.id/images/products/t/13/masking-tape-for-sealing-330-1478-image.jpg"	"1"	"93000.00"	"93000.00"	"93000.00"	"1"	"93000.00"	"74100"	"1"	"0"	"Ready (1-3 Days)"	"Daruma"
"SO-000245"	"2018-10-15 14:39:05"	"Completed (Paid)"	""	"2018-10-15 15:42:46"	"55859336"	"K050-0003"	"Kamoi Masking Tape for Sealing, 24 mm x 18 m, 3303HGJAN24-2309, 330-1486"	"Kamoi"	""	"https://media.daruma.co.id/images/products/t/55/masking-tape-for-sealing-330-1486-image.jpg"	"1"	"89000.00"	"89000.00"	"89000.00"	"1"	"89000.00"	"70500"	"1"	"0"	"Ready (1-3 Days)"	"Daruma"
"SO-000246"	"2018-10-15 16:06:18"	"Canceled"	"Duplicate"	""	"1266123894"	"P017-0001"	"Paperone Kertas Fotocopy 70gr A4"	"Paperone"	""	"https://media.daruma.co.id/images/products/t/12/paperone-kertas-fotocopy-70gr-a4-image.jpg"	"20"	"39000.00"	"39000.00"	"780000.00"	"0"	"0.00"	"0"	"0"	"20"	"Indent (2-4 Days)"	"Daruma"
"SO-000247"	"2018-10-15 16:21:18"	"Completed (Paid)"	""	"2018-10-15 16:31:52"	"1505802967"	"H003-0003"	"Hozan Pliers for crimping, P732, 120-4513"	"Hozan"	""	"https://media.daruma.co.id/images/products/t/15/pliers-for-crimping-120-4513-image.jpg"	"1"	"955000.00"	"955000.00"	"955000.00"	"1"	"955000.00"	"763700"	"1"	"0"	"Ready (1-3 Days)"	"Daruma"
"SO-000248"	"2018-10-15 16:47:26"	"Completed (Paid)"	""	"2018-10-16 08:05:31"	"781506613"	"S063-0009"	"Sanwa Mini Ball Valve (Stop Kran), Model BV 15 MM, Size 1/2"""	"Sanwa"	""	"https://media.daruma.co.id/images/products/t/78/sanwa-mini-ball-valve-model-bv-15-mm-size-1-2-image.jpg"	"15"	"34500.00"	"34500.00"	"517500.00"	"15"	"517500.00"	"0"	"15"	"0"	"Ready (1-3 Days)"	"Daruma"
"SO-000249"	"2018-10-16 09:00:52"	"Completed (Paid)"	""	"2018-10-16 14:01:46"	"50191918"	"T001-3734"	"Trusco L type Clamp, 800 mm, G80L-8593, 445-4651"	"Trusco"	""	"https://media.daruma.co.id/images/products/t/50/l-type-clamp-445-4651-image.jpg"	"1"	"2073000.00"	"2073000.00"	"2073000.00"	"1"	"2073000.00"	"1606300"	"1"	"0"	"Ready (1-3 Days)"	"Daruma"
"SO-000250"	"2018-10-16 09:28:30"	"Canceled"	"No available stock"	""	"792081934"	"L007-0003"	"Loctite Lb 8150 Silver Grade Anti-Seize"	"Loctite"	""	"https://media.daruma.co.id/images/products/t/79/loctite-lb-8150-silver-grade-anti-seize-image.jpg"	"3"	"139500.00"	"139500.00"	"418500.00"	"0"	"0.00"	"0"	"3"	"0"	"Ready (1-3 Days)"	"Daruma"
"SO-000251"	"2018-10-16 11:27:08"	"Completed (Paid)"	""	"2018-10-16 11:35:03"	"218674391"	"L007-0004"	"Loctite Lb 8150 Silver Grade Anti-Seize"	"Loctite"	""	"https://media.daruma.co.id/images/products/t/21/loctite-lb-8150-silver-grade-anti-seize-1-image.jpg"	"3"	"347400.00"	"347400.00"	"1042200.00"	"3"	"1042200.00"	"0"	"3"	"0"	"Ready (1-3 Days)"	"Daruma"
"SO-000252"	"2018-10-16 11:55:35"	"Completed (Paid)"	""	"2018-10-16 13:41:00"	"577207437"	"T008-0854"	"Tone T-Handle (Kunci Sock T), 250 mm, TH2250-8100, 327-1625"	"Tone"	""	"https://media.daruma.co.id/images/products/t/57/t-type-handle-327-1625-image.jpg"	"1"	"289000.00"	"289000.00"	"289000.00"	"1"	"289000.00"	"231200"	"1"	"0"	"Ready (1-3 Days)"	"Daruma"
"SO-000252"	"2018-10-16 11:55:35"	"Completed (Paid)"	""	"2018-10-16 13:41:00"	"307250288"	"T008-0855"	"Tone T-Handle (Kunci Sock T), 270 mm, TH3270-8100, 327-1633"	"Tone"	""	"https://media.daruma.co.id/images/products/t/30/t-type-handle-327-1633-image.jpg"	"1"	"324000.00"	"324000.00"	"324000.00"	"1"	"324000.00"	"258800"	"1"	"0"	"Ready (1-3 Days)"	"Daruma"
"SO-000253"	"2018-10-16 12:03:08"	"Completed (Paid)"	""	"2018-10-16 12:03:09"	"1266123894"	"P017-0001"	"Paperone Kertas Fotocopy 70gr A4"	"Paperone"	""	"https://media.daruma.co.id/images/products/t/12/paperone-kertas-fotocopy-70gr-a4-image.jpg"	"20"	"39000.00"	"39000.00"	"780000.00"	"20"	"780000.00"	"701577"	"10"	"10"	"Ready 10 (0-1 Days), Indent 10 (2-4 Days)"	"Daruma"
"SO-000254"	"2018-10-16 14:44:59"	"Completed (Paid)"	""	"2018-10-16 15:19:42"	"1991242176"	"T001-1312"	"Trusco Red Lead(Komyotan), Vermilion, 0.45 KG, KM045-4050, 123-6679"	"Trusco"	""	"https://media.daruma.co.id/images/products/t/19/red-lead-komyotan-123-6679-image.jpg"	"1"	"216000.00"	"205200.00"	"205200.00"	"1"	"205200.00"	"167100"	"1"	"0"	"Ready (1-3 Days)"	"Daruma"
"SO-000255"	"2018-10-17 13:56:39"	"Completed (Paid)"	""	"2018-10-17 14:55:09"	"299989538"	"B012-0160"	"Blue Point Measuring Tapes (Meter Ukur), BMPM5"	"Blue Point"	""	"https://media.daruma.co.id/images/products/t/29/measuring-tapes-image.jpg"	"2"	"62400.00"	"59300.00"	"118600.00"	"2"	"118600.00"	"106000"	"2"	"0"	"Ready (1-3 Days)"	"Daruma"
"SO-000256"	"2018-10-17 15:06:59"	"Completed (Paid)"	""	"2018-10-17 15:23:18"	"1415785116"	"M071-0078"	"Makita Well Balance Impact Wrench 6906"	"Makita"	""	"https://media.daruma.co.id/images/products/t/14/makita-well-balance-impact-wrench-6906-image.jpg"	"1"	"7804900.00"	"6868312.00"	"6868312.00"	"1"	"6868312.00"	"5819000"	"1"	"0"	"Ready (1-3 Days)"	"Daruma"
"SO-000257"	"2018-10-17 17:01:01"	"Completed (Paid)"	""	"2018-10-18 11:53:53"	"1902245677"	"T001-6438"	"Trusco Blue Sheet Alpha#3000, BSA4554, 232-1891"	"Trusco"	""	"https://media.daruma.co.id/images/products/t/19/blue-sheet-alpha-3000-232-1891-image.jpg"	"3"	"627000.00"	"627000.00"	"1881000.00"	"3"	"1881000.00"	"1455600"	"3"	"0"	"Ready (1-3 Days)"	"Daruma"
"SO-000258"	"2018-10-17 22:00:25"	"Pending Payment"	""	""	"1457906227"	"K025-0022"	"Kyowa Water Pressure Test Pump(Manual), T50K , 138-0974"	"Kyowa"	""	"https://media.daruma.co.id/images/products/t/14/kyowa-water-pressure-test-pump-manual-t50k-138-0974-image.jpg"	"1"	"3014000.00"	"3014000.00"	"3014000.00"	"0"	"0.00"	"0"	"1"	"0"	"Ready (1-3 Days)"	"Daruma"
"SO-000259"	"2018-10-18 08:19:11"	"Canceled"	"Duplicate"	""	"623946799"	"C020-0002"	"CEJN Pressure Gauge - Bottom Connection 63mm Range 0-10 kg/cm (Gauge Pneumatik), 193560508"	"CEJN"	""	"https://media.daruma.co.id/images/products/t/62/pressure-gauge-bottom-connection-63-mm-range-0-10-kg-cm-1-4-193560508-image.jpg"	"2"	"251500.00"	"251500.00"	"503000.00"	"0"	"0.00"	"0"	"2"	"0"	"Ready (1-3 Days)"	"Daruma"
"SO-000259"	"2018-10-18 08:19:11"	"Canceled"	"Duplicate"	""	"1433746088"	"C020-0009"	"CEJN Pressure Gauge - Bottom Connection 63mm Range 0-600 kg/cm (Gauge Pneumatik), 193560515"	"CEJN"	""	"https://media.daruma.co.id/images/products/t/14/pressure-gauge-bottom-connection-63-mm-range-0-600-kg-cm-1-4-193560515-image.jpg"	"2"	"345400.00"	"345400.00"	"690800.00"	"0"	"0.00"	"0"	"2"	"0"	"Ready (1-3 Days)"	"Daruma"
"SO-000259"	"2018-10-18 08:19:11"	"Canceled"	"Duplicate"	""	"1613233072"	"C020-0006"	"CEJN Pressure Gauge - Bottom Connection 63mm Range 0-60 kg/cm (Gauge Pneumatik), 193560511"	"CEJN"	""	"https://media.daruma.co.id/images/products/t/16/pressure-gauge-bottom-connection-63-mm-range-0-60-kg-cm-1-4-193560511-image.jpg"	"2"	"251500.00"	"251500.00"	"503000.00"	"0"	"0.00"	"0"	"2"	"0"	"Ready (1-3 Days)"	"Daruma"
"SO-000260"	"2018-10-18 09:19:43"	"Completed (Paid)"	""	"2018-10-18 09:55:07"	"362073243"	"Z004-0030"	"Zebra Ribbon Black Monochrome ZXP3"	"Zebra"	""	"https://media.daruma.co.id/images/products/t/36/zebra-ribbon-black-monochrome-zxp3-image.jpg"	"25"	"175000.00"	"166250.00"	"4156250.00"	"25"	"4156250.00"	"3500000"	"25"	"0"	"Ready (1-3 Days)"	"Daruma"
"SO-000261"	"2018-10-18 09:27:03"	"Shipping"	""	"2018-10-18 09:53:11"	"1774468140"	""	"Trusco Platform Truck, 101N, 414-4953"	"Trusco"	""	""	"3"	"1244000.00"	"1181800.00"	"3545400.00"	"0"	"0.00"	"0"	"0"	"3"	"Indent (30-40 Days)"	"Daruma"
"SO-000262"	"2018-10-18 16:27:00"	"Processing"	""	"2018-10-19 08:26:37"	"1698769373"	""	"L-Shape Hex Keys Set, BPS14A"	"Blue Point"	""	""	"1"	"1226000.00"	"1164700.00"	"1164700.00"	"1"	"1164700.00"	"919000"	"1"	"0"	"Ready (1-3 Days)"	"Daruma"
"SO-000262"	"2018-10-18 16:27:00"	"Processing"	""	"2018-10-19 08:26:37"	"531264232"	""	"M Series Screwdriver Foam Set, BPS9A"	"Blue Point"	""	""	"1"	"432000.00"	"410400.00"	"410400.00"	"0"	"0.00"	"0"	"1"	"0"	"Ready (1-3 Days)"	"Daruma"
"SO-000263"	"2018-10-18 16:30:56"	"Processing"	""	"2018-10-19 08:27:43"	"1698769373"	""	"L-Shape Hex Keys Set, BPS14A"	"Blue Point"	""	""	"1"	"1226000.00"	"1164700.00"	"1164700.00"	"1"	"1164700.00"	"919000"	"1"	"0"	"Ready (1-3 Days)"	"Daruma"
"SO-000263"	"2018-10-18 16:30:56"	"Processing"	""	"2018-10-19 08:27:43"	"1754772253"	""	"Combination Wrench Set (Glossy), BPS4PA"	"Blue Point"	""	""	"1"	"947000.00"	"899650.00"	"899650.00"	"0"	"0.00"	"0"	"0"	"1"	"Indent (15-20 Days)"	"Daruma"
"SO-000263"	"2018-10-18 16:30:56"	"Processing"	""	"2018-10-19 08:27:43"	"531264232"	""	"M Series Screwdriver Foam Set, BPS9A"	"Blue Point"	""	""	"1"	"432000.00"	"410400.00"	"410400.00"	"0"	"0.00"	"0"	"1"	"0"	"Ready (1-3 Days)"	"Daruma"
"SO-000264"	"2018-10-18 16:34:27"	"Canceled"	"Requested by customer"	"2018-10-19 08:31:09"	"1348713182"	"M006-0093"	"Midori Anzen Liner for Cap, INC100B , 388-6905"	"Midori Anzen"	""	"https://media.daruma.co.id/images/products/t/13/midori-anzen-liner-for-cap-inc100b-388-6905-image.jpg"	"1"	"64000.00"	"64000.00"	"64000.00"	"0"	"0.00"	"0"	"1"	"0"	"Ready (1-3 Days)"	"Daruma"
"SO-000269"	"2018-10-18 16:34:27"	"Completed (Paid)"	""	"2018-10-19 10:59:33"	"1348713182"	"M006-0093"	"Midori Anzen Liner for Cap, INC100B , 388-6905"	"Midori Anzen"	""	"https://media.daruma.co.id/images/products/t/13/midori-anzen-liner-for-cap-inc100b-388-6905-image.jpg"	"1"	"64000.00"	"64000.00"	"64000.00"	"1"	"64000.00"	"50900"	"1"	"0"	"Ready (1-3 Days)"	"Daruma"
"SO-000265"	"2018-10-18 16:35:55"	"Processing"	""	"2018-10-19 08:28:12"	"1754772253"	""	"Combination Wrench Set (Glossy), BPS4PA"	"Blue Point"	""	""	"1"	"947000.00"	"899650.00"	"899650.00"	"0"	"0.00"	"0"	"0"	"1"	"Indent (15-20 Days)"	"Daruma"
"SO-000266"	"2018-10-18 16:48:48"	"Canceled"	"Duplicate"	""	"2066842221"	"L007-0013"	"Loctite Lb 8801 Silicone Lubricant - 5.3 Oz Tube"	"Loctite"	""	"https://media.daruma.co.id/images/products/t/20/loctite-lb-8801-silicone-lubricant-5-3-oz-tube-image.jpg"	"1"	"291600.00"	"291600.00"	"291600.00"	"0"	"0.00"	"0"	"1"	"0"	"Ready (1-3 Days)"	"Daruma"
"SO-000266"	"2018-10-18 16:48:48"	"Canceled"	"Duplicate"	""	"792081934"	"L007-0003"	"Loctite Lb 8150 Silver Grade Anti-Seize"	"Loctite"	""	"https://media.daruma.co.id/images/products/t/79/loctite-lb-8150-silver-grade-anti-seize-image.jpg"	"1"	"139500.00"	"139500.00"	"139500.00"	"0"	"0.00"	"0"	"1"	"0"	"Ready (1-3 Days)"	"Daruma"
"SO-000267"	"2018-10-18 16:55:53"	"Completed (Paid)"	""	"2018-10-19 10:28:28"	"792081934"	"L007-0003"	"Loctite Lb 8150 Silver Grade Anti-Seize"	"Loctite"	""	"https://media.daruma.co.id/images/products/t/79/loctite-lb-8150-silver-grade-anti-seize-image.jpg"	"1"	"139500.00"	"139500.00"	"139500.00"	"1"	"139500.00"	"100300"	"1"	"0"	"Ready (1-3 Days)"	"Daruma"
"SO-000268"	"2018-10-18 20:41:02"	"Completed (Paid)"	""	"2018-10-22 11:36:44"	"1703981935"	"M042-0004"	"Moldex Meteors Uncorded, 6870 , 770-4909"	"Moldex"	""	"https://media.daruma.co.id/images/products/t/17/moldex-meteors-uncorded-6870-770-4909-image.jpg"	"30"	"7000.00"	"7000.00"	"210000.00"	"30"	"210000.00"	"150000"	"30"	"0"	"Ready (1-3 Days)"	"Daruma"
"SO-000270"	"2018-10-19 10:59:36"	"Completed (Paid)"	""	"2018-10-19 15:04:02"	"1743314237"	"L007-0127"	"Henkel Loctite 290 Threadlocker Wicking Grade Green 50 ml Bottle"	"Loctite"	""	"https://media.daruma.co.id/images/products/t/17/henkel-loctite-290-threadlocker-wicking-grade-green-50-ml-bottle-image.jpg"	"1"	"320000.00"	"320000.00"	"320000.00"	"1"	"320000.00"	"230300"	"1"	"0"	"Ready (1-3 Days)"	"Daruma"
"SO-000271"	"2018-10-19 11:58:34"	"Completed (Paid)"	""	"2018-10-22 14:46:36"	"945870034"	"T001-6749"	"Trusco Anti-Slip Tape (Outdoor), 50 mm x 10 m, TNS5010-3100Y, 359-6320"	"Trusco"	""	"https://media.daruma.co.id/images/products/t/94/anti-slip-tape-outdoor-359-6320-image.jpg"	"1"	"539000.00"	"512050.00"	"512050.00"	"1"	"512050.00"	"417600"	"1"	"0"	"Ready (1-3 Days)"	"Daruma"
"SO-000271"	"2018-10-19 11:58:34"	"Completed (Paid)"	""	"2018-10-22 14:46:36"	"1311392536"	"T001-6745"	"Trusco Anti-Slip Tape (Outdoor), 50 mm x 10 m, TNS5010-3100BK, 359-6303"	"Trusco"	""	"https://media.daruma.co.id/images/products/t/13/anti-slip-tape-outdoor-359-6303-image.jpg"	"1"	"539000.00"	"512050.00"	"512050.00"	"1"	"512050.00"	"417600"	"1"	"0"	"Ready (1-3 Days)"	"Daruma"
"SO-000272"	"2018-10-19 16:15:05"	"Processing"	""	"2018-11-12 16:52:46"	"667333847"	"S021-0362"	"Super MAG-PEN Bar, MGB556 , 336-0369"	"Super"	""	"https://media.daruma.co.id/images/products/t/66/super-mag-pen-bar-mgb556-336-0369-image.jpg"	"10"	"179000.00"	"170050.00"	"1700500.00"	"0"	"0.00"	"0"	"0"	"10"	"Indent (15-40 Days)"	"Daruma"
"SO-000273"	"2018-10-22 11:32:38"	"Completed (Paid)"	""	"2018-10-22 14:46:10"	"781506613"	"S063-0009"	"Sanwa Mini Ball Valve (Stop Kran), Model BV 15 MM, Size 1/2"""	"Sanwa"	""	"https://media.daruma.co.id/images/products/t/78/sanwa-mini-ball-valve-model-bv-15-mm-size-1-2-image.jpg"	"16"	"34500.00"	"34500.00"	"552000.00"	"16"	"552000.00"	"441600"	"16"	"0"	"Ready (1-3 Days)"	"Daruma"
"SO-000274"	"2018-10-22 13:26:28"	"Completed (Paid)"	""	"2018-10-24 14:38:54"	"1387195103"	"C021-0005"	"Cemedine Adhesive 3000 Gel, CA281 , 492-0864"	"Cemedine"	""	"https://media.daruma.co.id/images/products/t/13/cemedine-adhesive-3000-gel-ca281-492-0864-image.jpg"	"10"	"136000.00"	"136000.00"	"1360000.00"	"10"	"1360000.00"	"1088000"	"10"	"0"	"Ready (1-3 Days)"	"Daruma"
"SO-000275"	"2018-10-22 13:31:25"	"Canceled"	"Requested by customer"	"2018-10-22 14:47:04"	"1991242176"	"T001-1312"	"Trusco Red Lead(Komyotan), Vermilion, 0.45 KG, KM045-4050, 123-6679"	"Trusco"	""	"https://media.daruma.co.id/images/products/t/19/red-lead-komyotan-123-6679-image.jpg"	"5"	"216000.00"	"205200.00"	"1026000.00"	"1"	"205200.00"	"167100"	"1"	"4"	"Ready 1 (0-1 Days), Indent 4 (15-40 Days)"	"Daruma"
"SO-000276"	"2018-10-22 13:33:49"	"Completed (Paid)"	""	"2018-10-23 08:16:41"	"1614274475"	"T062-4364"	"Trusco Alpha Penetration Spray, ALPHS, 123-0654"	"Trusco"	""	"https://media.daruma.co.id/images/products/t/16/trusco-alpha-penetration-spray-alphs-123-0654-image.jpg"	"2"	"125000.00"	"125000.00"	"250000.00"	"2"	"250000.00"	"193200"	"2"	"0"	"Ready (1-3 Days)"	"Daruma"
"SO-000277"	"2018-10-22 14:14:39"	"Completed (Paid)"	""	"2018-10-25 15:11:00"	"641816118"	"Z004-0025"	"Zebra ZT420 300 dpi"	"Zebra"	""	"https://media.daruma.co.id/images/products/t/64/zebra-zt420-300-dpi-image.jpg"	"1"	"33375000.00"	"31706250.00"	"31706250.00"	"1"	"31706250.00"	"27125000"	"1"	"0"	"Ready (1-3 Days)"	"Daruma"
"SO-000278"	"2018-10-22 14:39:52"	"Completed (Paid)"	""	"2018-10-25 15:42:30"	"1925929101"	"P015-0019"	"Pyolan Masking Tape, 100 mm x 25 m, Y09GR100MM-6271, 290-0505"	"Pyolan"	""	"https://media.daruma.co.id/images/products/t/19/pyolan-masking-tape-290-0505-image.jpg"	"1"	"106000.00"	"106000.00"	"106000.00"	"1"	"106000.00"	"84400"	"1"	"0"	"Ready (1-3 Days)"	"Daruma"
"SO-000279"	"2018-10-22 15:20:36"	"Processing"	""	"2018-10-23 08:18:42"	"1085867464"	"T001-5137"	"Trusco Thin type-Foldable Container, 51.3 L, TRC50B-8000GY, 344-9301"	"Trusco"	""	"https://media.daruma.co.id/images/products/t/10/thin-type-foldable-container-344-9301-image.jpg"	"40"	"307000.00"	"307000.00"	"12280000.00"	"0"	"0.00"	"0"	"1"	"39"	"Ready 1 (1-3 Days), Indent 39 (15-40 Days)"	"Daruma"
"SO-000280"	"2018-10-23 09:40:34"	"Completed (Paid)"	""	"2018-10-23 13:27:17"	"570154881"	"H038-0063"	"Holex Digital Caliper, N862, S/STL"	"Holex"	""	"https://media.daruma.co.id/images/products/t/57/holex-digital-caliper-n862-s-stl-image.jpg"	"1"	"813000.00"	"731700.00"	"731700.00"	"1"	"731700.00"	"650000"	"1"	"0"	"Ready (2-3 Days)"	"Daruma"
"SO-000281"	"2018-10-23 10:34:24"	"Completed (Paid)"	""	"2018-10-23 13:30:15"	"613419761"	"L007-0019"	"Henkel Loctite Prism 406 Surface Insensitive Instant Adhesive Clear 20g Bottle"	"Loctite"	""	"https://media.daruma.co.id/images/products/t/61/henkel-loctite-prism-406-surface-insensitive-instant-adhesive-clear-20g-bottle-image.jpg"	"1"	"136800.00"	"136800.00"	"136800.00"	"1"	"136800.00"	"98700"	"1"	"0"	"Ready (1-3 Days)"	"Daruma"
"SO-000282"	"2018-10-23 11:37:29"	"Completed (Paid)"	""	"2018-10-23 13:23:38"	"1538353513"	"L007-0030"	"Henkel Loctite Super Bonder 495 Instant Adhesive Clear 20g Bottle"	"Loctite"	""	"https://media.daruma.co.id/images/products/t/15/henkel-loctite-super-bonder-495-instant-adhesive-clear-20g-bottle-image.jpg"	"1"	"71100.00"	"55300.00"	"55300.00"	"1"	"55300.00"	"51300"	"1"	"0"	"Ready (1-3 Days)"	"Daruma"
"SO-000283"	"2018-10-23 15:05:49"	"Processing"	""	"2018-10-25 15:17:51"	"1991242176"	"T001-1312"	"Trusco Red Lead(Komyotan), Vermilion, 0.45 KG, KM045-4050, 123-6679"	"Trusco"	""	"https://media.daruma.co.id/images/products/t/19/red-lead-komyotan-123-6679-image.jpg"	"1"	"216000.00"	"205200.00"	"205200.00"	"0"	"0.00"	"0"	"0"	"1"	"Indent (15-40 Days)"	"Daruma"
"SO-000284"	"2018-10-23 15:54:27"	"Completed (Paid)"	""	"2018-10-24 16:21:41"	"112984248"	"T001-5711"	"Trusco 2 Flat Shelf Cart, 740 x 480 mm, 104N, 414-5011"	"Trusco"	""	"https://media.daruma.co.id/images/products/t/11/2-flat-shelf-cart-414-5011-image.jpg"	"1"	"3579000.00"	"3042150.00"	"3042150.00"	"1"	"3042150.00"	"2773400"	"1"	"0"	"Ready (1-3 Days)"	"Daruma"
"SO-000285"	"2018-10-24 13:19:23"	"Completed (Paid)"	""	"2018-10-29 11:37:08"	"56447398"	"C019-0007"	"Chukoh Antistatic PTFE Adhesive Tape, 50 mm x 10 m, AGB10013X50-4296, 391-4178"	"Chukoh"	""	"https://media.daruma.co.id/images/products/t/56/antistatic-ptfe-adhesive-tape-391-4178-image.jpg"	"1"	"1339000.00"	"1205100.00"	"1205100.00"	"1"	"1205100.00"	"1070800"	"1"	"0"	"Ready (1-3 Days)"	"Daruma"
"SO-000286"	"2018-10-24 14:03:44"	"Processing"	""	"2018-10-24 16:22:18"	"43099823"	"N024-0082"	"Nitto Waterproof Sealing Tape (Double/Single-sided), 10 mm x 2 m, 686X15X10-5038, 377-7162"	"Nitto"	""	"https://media.daruma.co.id/images/products/t/43/waterproof-sealing-tape-double-single-sided-377-7162-image.jpg"	"3"	"50000.00"	"50000.00"	"150000.00"	"2"	"100000.00"	"79400"	"2"	"1"	"Ready 2 (1-3 Days), Indent 1 (15-40 Days)"	"Daruma"
"SO-000286"	"2018-10-24 14:03:44"	"Processing"	""	"2018-10-24 16:22:18"	"1932959105"	"N024-0086"	"Nitto Waterproof Sealing Tape (Double/Single-sided), 10 mm x 2 m, 686X20X10-5038, 214-4824"	"Nitto"	""	"https://media.daruma.co.id/images/products/t/19/waterproof-sealing-tape-double-single-sided-214-4824-image.jpg"	"1"	"61000.00"	"61000.00"	"61000.00"	"1"	"61000.00"	"48500"	"1"	"0"	"Ready (1-3 Days)"	"Daruma"
"SO-000287"	"2018-10-24 15:15:05"	"Processing"	""	"2018-11-12 16:53:00"	"228604268"	"K050-0004"	"Kamoi Masking Tape, KABUKISJAN15 , 308-5422"	"Kamoi"	""	"https://media.daruma.co.id/images/products/t/22/kamoi-masking-tape-kabukisjan15-308-5422-image.jpg"	"20"	"76000.00"	"72200.00"	"1444000.00"	"0"	"0.00"	"0"	"1"	"19"	"Ready 1 (1-3 Days), Indent 19 (15-40 Days)"	"Daruma"
"SO-000287"	"2018-10-24 15:15:05"	"Processing"	""	"2018-11-12 16:53:00"	"47971513"	""	"TERAOKA Double Tape NO.712 (60 Roll)"	"Teraoka"	""	""	"1"	"4343000.00"	"4125850.00"	"4125850.00"	"0"	"0.00"	"0"	"0"	"1"	"Indent (15-20 Days)"	"Daruma"
"SO-000288"	"2018-10-24 16:31:10"	"Completed (Paid)"	""	"2018-10-25 15:11:22"	"520952975"	"L004-0051"	"Leaf Magnifying Lens with Light, LI30N , 321-4788"	"Leaf"	""	"https://media.daruma.co.id/images/products/t/52/leaf-magnifying-lens-with-light-li30n-321-4788-image.jpg"	"1"	"992000.00"	"892800.00"	"892800.00"	"1"	"892800.00"	"793600"	"1"	"0"	"Ready (1-3 Days)"	"Daruma"
"SO-000289"	"2018-10-25 08:16:53"	"Processing"	""	"2018-10-25 15:11:36"	"1539740427"	"T001-2248"	"Trusco Hose & Nozzle for Grease Gun, 265 mm, G3C10-1111, 112-5273"	"Trusco"	""	"https://media.daruma.co.id/images/products/t/15/hose-nozzle-for-grease-gun-112-5273-image.jpg"	"1"	"414000.00"	"414000.00"	"414000.00"	"1"	"414000.00"	"320200"	"1"	"0"	"Ready (1-3 Days)"	"Daruma"
"SO-000289"	"2018-10-25 08:16:53"	"Processing"	""	"2018-10-25 15:11:36"	"237505760"	"T001-2923"	"Trusco Center Punch, TCP125, 366-8860"	"Trusco"	""	"https://media.daruma.co.id/images/products/t/23/center-punch-366-8860-image.jpg"	"2"	"45000.00"	"45000.00"	"90000.00"	"2"	"90000.00"	"68600"	"2"	"0"	"Ready (1-3 Days)"	"Daruma"
"SO-000289"	"2018-10-25 08:16:53"	"Processing"	""	"2018-10-25 15:11:36"	"482593324"	"T001-2933"	"Trusco Belt Punch, 14mm, TPO140, 336-4666"	"Trusco"	""	"https://media.daruma.co.id/images/products/t/48/belt-punch-336-4666-image.jpg"	"3"	"132000.00"	"132000.00"	"396000.00"	"3"	"396000.00"	"305100"	"3"	"0"	"Ready (1-3 Days)"	"Daruma"
"SO-000289"	"2018-10-25 08:16:53"	"Processing"	""	"2018-10-25 15:11:36"	"1488188299"	"T062-3443"	"Trusco Cartridge-type Grease Gun, CG400, 112-5168"	"Trusco"	""	"https://media.daruma.co.id/images/products/t/14/trusco-cartridge-type-grease-gun-cg400-112-5168-image.jpg"	"2"	"414000.00"	"414000.00"	"828000.00"	"0"	"0.00"	"0"	"0"	"2"	"Indent (15-40 Days)"	"Daruma"
"SO-000290"	"2018-10-25 08:36:05"	"Processing"	""	"2018-10-25 09:38:49"	"811985999"	"N045-0003"	"Nite Ize S-BINER Stainless, NI00739, 479-8325"	"Nite Ize"	""	"https://media.daruma.co.id/images/products/t/81/s-biner-stainless-479-8325-image.jpg"	"2"	"102000.00"	"102000.00"	"204000.00"	"1"	"102000.00"	"81300"	"1"	"1"	"Ready 1 (1-3 Days), Indent 1 (15-40 Days)"	"Daruma"
"SO-000290"	"2018-10-25 08:36:05"	"Processing"	""	"2018-10-25 09:38:49"	"882635514"	"N045-0001"	"Nite Ize S-BINER Stainless, NI00737, 479-8309"	"Nite Ize"	""	"https://media.daruma.co.id/images/products/t/88/s-biner-stainless-479-8309-image.jpg"	"2"	"71000.00"	"71000.00"	"142000.00"	"1"	"71000.00"	"56300"	"1"	"1"	"Ready 1 (1-3 Days), Indent 1 (15-40 Days)"	"Daruma"
"SO-000291"	"2018-10-25 09:21:48"	"Processing"	""	"2018-10-25 16:16:09"	"1213419220"	"K039-0009"	"King Jim Tepra PRO Tape Cartridge, SS12K, 002-6743"	"King Jim"	""	"https://media.daruma.co.id/images/products/t/12/tepra-pro-tape-cartridge-002-6743-image.jpg"	"5"	"137000.00"	"137000.00"	"685000.00"	"0"	"0.00"	"0"	"5"	"0"	"Ready (1-3 Days)"	"Daruma"
"SO-000292"	"2018-10-25 09:25:49"	"Processing"	""	"2018-11-12 16:53:09"	"33310651"	"K039-0012"	"King Jim Tepra PRO Tape Cartridge, SS36K, 006-0569"	"King Jim"	""	"https://media.daruma.co.id/images/products/t/33/tepra-pro-tape-cartridge-006-0569-image.jpg"	"5"	"274000.00"	"274000.00"	"1370000.00"	"0"	"0.00"	"0"	"1"	"4"	"Ready 1 (1-3 Days), Indent 4 (15-40 Days)"	"Daruma"
"SO-000293"	"2018-10-25 10:05:44"	"Completed (Paid)"	""	"2018-10-29 15:05:09"	"228262937"	"D017-0005"	"Datalogic GPS4490"	"Datalogic"	""	"https://media.daruma.co.id/images/products/t/22/datalogic-gps4490-image.jpg"	"1"	"4375000.00"	"3937500.00"	"3937500.00"	"1"	"3937500.00"	"3500000"	"1"	"0"	"Ready (1-3 Days)"	"Daruma"
"SO-000294"	"2018-10-25 10:07:03"	"Canceled"	"No available stock"	""	"1348839049"	"L005-0016"	"Ledlenser Rechargeable LED Light LEDLENSER P5R.2, 9405R , 776-3638"	"Ledlenser"	""	"https://media.daruma.co.id/images/products/t/13/ledlenser-rechargeable-led-light-ledlenser-p5r-2-9405r-776-3638-image.jpg"	"1"	"1893000.00"	"1893000.00"	"1893000.00"	"0"	"0.00"	"0"	"1"	"0"	"Ready (1-3 Days)"	"Daruma"
"SO-000295"	"2018-10-25 11:11:29"	"Completed (Paid)"	""	"2018-10-25 11:11:31"	"1523953146"	"P025-0001"	"PP Lite A4 70 Gr"	"PP Lite"	""	""	"6"	"38000.00"	"38000.00"	"228000.00"	"6"	"228000.00"	"205140"	"6"	"0"	"Ready (0-1 Days)"	"Daruma"
"SO-000296"	"2018-10-25 11:38:00"	"Completed (Paid)"	""	"2018-10-26 13:52:18"	"1746806444"	"L007-0113"	"Henkel Loctite 242 Threadlocker Anaerobic Adhesive Blue 250 ml Bottle"	"Loctite"	""	"https://media.daruma.co.id/images/products/t/17/henkel-loctite-242-threadlocker-anaerobic-adhesive-blue-250-ml-bottle-image.jpg"	"25"	"1163700.00"	"1047330.00"	"26183250.00"	"25"	"26183250.00"	"21002500"	"25"	"0"	"Ready (1-3 Days)"	"Daruma"
"SO-000297"	"2018-10-25 19:33:12"	"Completed (Paid)"	""	"2018-10-26 08:44:38"	"500148078"	"T062-3280"	"Trusco 3 Fingers Cow Split Leather Welding Glove, TYKT3 , 253-8431"	"Trusco"	""	"https://media.daruma.co.id/images/products/t/50/trusco-3-fingers-cow-split-leather-welding-glove-tykt3-253-8431-image.jpg"	"1"	"205000.00"	"205000.00"	"205000.00"	"1"	"205000.00"	"158700"	"1"	"0"	"Ready (1-3 Days)"	"Daruma"
"SO-000298"	"2018-10-26 09:39:43"	"Canceled"	"Not paid"	""	"1367132267"	"L007-0017"	"Henkel Loctite Prism 401 Surface Insensitive Instant Adhesive Clear 20g Bottle"	"Loctite"	""	"https://media.daruma.co.id/images/products/t/13/henkel-loctite-prism-401-surface-insensitive-instant-adhesive-clear-20g-bottle-image.jpg"	"50"	"100800.00"	"79800.00"	"3990000.00"	"0"	"0.00"	"0"	"50"	"0"	"Ready (1-3 Days)"	"Daruma"
"SO-000299"	"2018-10-26 13:13:25"	"Canceled"	"Duplicate"	""	"1381795165"	"Z004-0042"	"Zebra ZT230 Industrial Barcode Printer"	"Zebra"	"ZT230"	"https://media.daruma.co.id/images/products/t/13/zt230-industrial-printer-image.jpg"	"1"	"11000000.00"	"9900000.00"	"9900000.00"	"0"	"0.00"	"0"	"1"	"0"	"Ready (1-3 Days)"	"Daruma"
"SO-000300"	"2018-10-26 13:25:39"	"Processing"	""	"2018-10-26 13:52:29"	"1600476834"	"L007-0066"	"Loctite SI 595 Clear RTV Silicone Adhesive Sealant 300ml Cartridge"	"Loctite"	""	"https://media.daruma.co.id/images/products/t/16/loctite-si-595-clear-rtv-silicone-adhesive-sealant-300ml-tube-image.jpg"	"30"	"140400.00"	"133380.00"	"4001400.00"	"30"	"4001400.00"	"3033000"	"30"	"0"	"Ready (1-3 Days)"	"Daruma"
"SO-000300"	"2018-10-26 13:25:39"	"Processing"	""	"2018-10-26 13:52:29"	"20502065"	"V002-0273"	"Vessel Plastic(Vinyl chloride)Head Hammer (Palu), 350 mm, 702-6080, 124-6429"	"Vessel"	""	"https://media.daruma.co.id/images/products/t/20/plastic-vinyl-chloride-head-hammer-124-6429-image.jpg"	"1"	"389000.00"	"369550.00"	"369550.00"	"0"	"0.00"	"0"	"1"	"0"	"Ready (1-3 Days)"	"Daruma"
"SO-000301"	"2018-10-26 13:39:15"	"Processing"	""	"2018-10-26 15:23:52"	"1224165202"	"T043-0014"	"Tanizawa Chin Strap, VPT16E , 289-9582"	"Tanizawa"	""	"https://media.daruma.co.id/images/products/t/12/tanizawa-chin-strap-vpt16e-289-9582-image.jpg"	"20"	"60000.00"	"57000.00"	"1140000.00"	"8"	"456000.00"	"380000"	"8"	"12"	"Ready 8 (1-3 Days), Indent 12 (15-40 Days)"	"Daruma"
"SO-000302"	"2018-10-26 13:58:29"	"Completed (Paid)"	""	"2018-10-26 15:17:54"	"474213654"	"S063-0008"	"Sanwa Mini Ball Valve (Stop Kran), Model BV 15 MF, Size 1/2"""	"Sanwa"	""	"https://media.daruma.co.id/images/products/t/47/sanwa-mini-ball-valve-model-bv-15-mf-size-1-2-image.jpg"	"2"	"34545.00"	"34545.00"	"69090.00"	"2"	"69090.00"	"55200"	"2"	"0"	"Ready (1-3 Days)"	"Daruma"
"SO-000303"	"2018-10-29 08:56:27"	"Canceled"	"Duplicate"	""	"1806790280"	"A022-0003"	"Anviz C2PRO Professional Fingerprint & Card Terminal (Scanner Sidik Jari)"	"Anviz"	""	"https://media.daruma.co.id/images/products/t/18/c2pro-professional-fingerprint-card-terminal-image.jpg"	"1"	"4500000.00"	"4500000.00"	"4500000.00"	"0"	"0.00"	"0"	"0"	"1"	"Indent (20-30 Days)"	"Daruma"
"SO-000304"	"2018-10-29 11:40:47"	"Completed (Paid)"	""	"2018-10-30 08:20:18"	"1606526118"	"C022-0024"	"Crecia Kim Towel White, 61401, 126-2271"	"Crecia"	""	"https://media.daruma.co.id/images/products/t/16/crecia-kim-towel-white-61401-126-2271-image.jpg"	"1"	"1571000.00"	"1413900.00"	"1413900.00"	"1"	"1413900.00"	"1256400"	"1"	"0"	"Ready (1-3 Days)"	"Daruma"
"SO-000305"	"2018-10-29 15:44:18"	"Pending Payment"	""	""	"929970257"	"T058-0026"	"Togi Terminal Block for DIN Rail, PTU30L2 , 391-9005"	"Togi"	""	"https://media.daruma.co.id/images/products/t/92/togi-terminal-block-for-din-rail-ptu30l2-391-9005-image.jpg"	"1"	"4000.00"	"4000.00"	"4000.00"	"0"	"0.00"	"0"	"1"	"0"	"Ready (1-3 Days)"	"Daruma"
"SO-000306"	"2018-10-30 07:46:06"	"Canceled"	"Duplicate"	""	"1764635784"	"S021-0217"	"Super Flange Nut, 20MFN, 171-5437"	"Super"	""	"https://media.daruma.co.id/images/products/t/17/flange-nut-171-5437-image.jpg"	"20"	"98000.00"	"98000.00"	"1960000.00"	"0"	"0.00"	"0"	"0"	"20"	"Indent (15-40 Days)"	"Daruma"
"SO-000307"	"2018-10-30 09:29:49"	"Completed"	""	"2018-10-30 10:12:37"	"734975886"	"M071-0177"	"Makita Laser Distance Measure, 50m LD050P"	"Makita"	""	"https://media.daruma.co.id/images/products/t/73/makita-laser-distance-measure-50m-ld050p-image.jpg"	"1"	"1658600.00"	"1492740.00"	"1492740.00"	"1"	"1492740.00"	"1360000"	"1"	"0"	"Ready (1-3 Days)"	"Daruma"
"SO-000308"	"2018-10-30 15:21:12"	"Processing"	""	"2018-11-08 10:40:39"	"1269191211"	"I017-0002"	"Imperial Mini Tube Cutter, 175046, 123-6601"	"Imperial"	""	"https://media.daruma.co.id/images/products/t/12/mini-tube-cutter-123-6601-image.jpg"	"4"	"134000.00"	"127300.00"	"509200.00"	"0"	"0.00"	"0"	"1"	"3"	"Ready 1 (1-3 Days), Indent 3 (15-40 Days)"	"Daruma"
"SO-000309"	"2018-10-31 09:59:22"	"Completed"	""	"2018-10-31 10:53:09"	"57556114"	"S021-0367"	"Super Super Snap Ring Pliers for Shaft, CS1B , 111-3062"	"Super"	""	"https://media.daruma.co.id/images/products/t/57/super-super-snap-ring-pliers-for-shaft-cs1b-111-3062-image.jpg"	"1"	"293000.00"	"263700.00"	"263700.00"	"1"	"263700.00"	"234400"	"1"	"0"	"Ready (1-3 Days)"	"Daruma"
"SO-000309"	"2018-10-31 09:59:22"	"Completed"	""	"2018-10-31 10:53:09"	"1116394684"	"S021-0368"	"Super Super Snap Ring Pliers for Shaft, CS3B , 111-3071"	"Super"	""	"https://media.daruma.co.id/images/products/t/11/super-super-snap-ring-pliers-for-shaft-cs3b-111-3071-image.jpg"	"1"	"318000.00"	"286200.00"	"286200.00"	"1"	"286200.00"	"253800"	"1"	"0"	"Ready (1-3 Days)"	"Daruma"
"SO-000310"	"2018-10-31 11:39:23"	"Processing"	""	"2018-10-31 15:21:23"	"2011446530"	"J011-0614"	"Jonnesway 25 Pcs Hydraulic Gear Puller"	"Jonnesway"	""	""	"1"	"4397000.00"	"4177150.00"	"4177150.00"	"0"	"0.00"	"0"	"0"	"1"	"Indent (60-90 Days)"	"Daruma"
"SO-000311"	"2018-10-31 12:04:16"	"Processing"	""	"2018-10-31 15:20:58"	"413461347"	"U001-0007"	"Unika Non-Plug Screw Pan Head, 25 mm, PS425DN, 379-5284"	"Unika"	""	"https://media.daruma.co.id/images/products/t/41/non-plug-screw-pan-head-379-5284-image.jpg"	"1"	"150000.00"	"150000.00"	"150000.00"	"0"	"0.00"	"0"	"1"	"0"	"Ready (1-3 Days)"	"Daruma"
"SO-000312"	"2018-11-01 10:15:15"	"Processing"	""	"2018-11-01 10:15:18"	"1407454083"	"E019-0001"	"Epson Printer Ink For L100/ L200/L300 T6641 Black"	"Epson"	""	""	"1"	"95000.00"	"95000.00"	"95000.00"	"1"	"95000.00"	"83400"	"1"	"0"	"Ready (0-1 Days)"	"Daruma"
"SO-000312"	"2018-11-01 10:15:15"	"Processing"	""	"2018-11-01 10:15:18"	"1602980509"	"J009-0001"	"JOYKO Binder Clip  Capacity  No 105"	"Joyko"	""	"https://media.daruma.co.id/images/products/t/16/joyko-binder-clip-capacity-no-105-image.jpg"	"5"	"4000.00"	"4000.00"	"20000.00"	"5"	"20000.00"	"12000"	"5"	"0"	"Ready (0-1 Days)"	"Daruma"
"SO-000312"	"2018-11-01 10:15:15"	"Processing"	""	"2018-11-01 10:15:18"	"115727023"	"J009-0010"	"Joyko Binder Clip Capacity No 107 (19Mm)@ 12 Pcs"	"Joyko"	""	""	"5"	"4000.00"	"4000.00"	"20000.00"	"5"	"20000.00"	"13500"	"5"	"0"	"Ready (0-1 Days)"	"Daruma"
"SO-000312"	"2018-11-01 10:15:15"	"Processing"	""	"2018-11-01 10:15:18"	"1898720907"	"J009-0005"	"Joyko Puncher 2 Hole 85B"	"Joyko"	""	""	"1"	"38000.00"	"38000.00"	"38000.00"	"1"	"38000.00"	"33500"	"0"	"1"	"Indent (1-3 Days)"	"Daruma"
"SO-000312"	"2018-11-01 10:15:15"	"Processing"	""	"2018-11-01 10:15:18"	"1088104765"	"M074-0001"	"Microdot Case Caddy Set 83122"	"Microdot"	""	""	"1"	"26000.00"	"26000.00"	"26000.00"	"1"	"26000.00"	"23300"	"1"	"0"	"Ready (0-1 Days)"	"Daruma"
"SO-000312"	"2018-11-01 10:15:15"	"Processing"	""	"2018-11-01 10:15:18"	"956959352"	"B015-0008"	"Bantex Glue Stick 35 Gr 8212-00"	"Bantex"	""	""	"2"	"14000.00"	"14000.00"	"28000.00"	"0"	"0.00"	"0"	"0"	"2"	"Indent (1-3 Days)"	"Daruma"
"SO-000312"	"2018-11-01 10:15:15"	"Processing"	""	"2018-11-01 10:15:18"	"352682633"	"D031-0002"	"Daiichi Clear Sleeves Size F4 Dcs05Fc Transparant"	"Daiichi"	"8FDC-CSF408"	""	"1"	"27000.00"	"27000.00"	"27000.00"	"1"	"27000.00"	"24000"	"1"	"0"	"Ready (0-1 Days)"	"Daruma"
"SO-000312"	"2018-11-01 10:15:15"	"Processing"	""	"2018-11-01 10:15:18"	"2060707432"	"J009-0009"	"Joyko Cutter A-300"	"Joyko"	"8DJO-A300"	""	"3"	"6000.00"	"6000.00"	"18000.00"	"3"	"18000.00"	"14100"	"3"	"0"	"Ready (0-1 Days)"	"Daruma"
"SO-000312"	"2018-11-01 10:15:15"	"Processing"	""	"2018-11-01 10:15:18"	"558131067"	"B015-0005"	"BANTEX Lever Arch Files Plastic Size F4  Width 7cm 1465 Hitam"	"Bantex"	""	"https://media.daruma.co.id/images/products/t/55/bantex-lever-arch-files-plastic-size-f4-width-7cm-1465-hitam-image.jpg"	"10"	"31000.00"	"31000.00"	"310000.00"	"10"	"310000.00"	"271000"	"5"	"5"	"Ready 5 (0-1 Days), Indent 5 (1-3 Days)"	"Daruma"
"SO-000312"	"2018-11-01 10:15:15"	"Processing"	""	"2018-11-01 10:15:18"	"1496513115"	"S079-0003"	"SNOWMAN Marker Whiteboard BG-12 Bullet Tip Hitam"	"Snowman"	""	"https://media.daruma.co.id/images/products/t/14/snowman-marker-whiteboard-bg-12-bullet-tip-hitam-image.jpg"	"2"	"7000.00"	"7000.00"	"14000.00"	"2"	"14000.00"	"12800"	"2"	"0"	"Ready (0-1 Days)"	"Daruma"
"SO-000312"	"2018-11-01 10:15:15"	"Processing"	""	"2018-11-01 10:15:18"	"819249604"	"G012-0001"	"GARDA Envelopes Brown Size Folio (250x300mm) Brown"	""	""	""	"2"	"42000.00"	"42000.00"	"84000.00"	"2"	"84000.00"	"74000"	"2"	"0"	"Ready (0-1 Days)"	"Daruma"
"SO-000312"	"2018-11-01 10:15:15"	"Processing"	""	"2018-11-01 10:15:18"	"228879697"	"M048-0180"	"3M Label Post It Size 1.5x2"" 653 Yellow"	"3M"	""	""	"7"	"6000.00"	"6000.00"	"42000.00"	"7"	"42000.00"	"29400"	"7"	"0"	"Ready (0-1 Days)"	"Daruma"
"SO-000312"	"2018-11-01 10:15:15"	"Processing"	""	"2018-11-01 10:15:18"	"785858903"	"M048-0181"	"3M Label Post It Size 3x3"" 654 Yellow"	"3M"	""	"https://media.daruma.co.id/images/products/t/78/3m-label-post-it-size-3x3-654-yellow-image.jpg"	"5"	"11000.00"	"11000.00"	"55000.00"	"5"	"55000.00"	"46000"	"5"	"0"	"Ready (0-1 Days)"	"Daruma"
"SO-000312"	"2018-11-01 10:15:15"	"Processing"	""	"2018-11-01 10:15:18"	"599088671"	"M058-0012"	"Max Stapler HD-10 HD92264"	"Max"	""	""	"3"	"14000.00"	"14000.00"	"42000.00"	"3"	"42000.00"	"35100"	"3"	"0"	"Ready (0-1 Days)"	"Daruma"
"SO-000312"	"2018-11-01 10:15:15"	"Processing"	""	"2018-11-01 10:15:18"	"2018549119"	"B027-0001"	"Boss Stabilo Green"	"Boss"	""	""	"2"	"9000.00"	"9000.00"	"18000.00"	"2"	"18000.00"	"14600"	"2"	"0"	"Ready (0-1 Days)"	"Daruma"
"SO-000312"	"2018-11-01 10:15:15"	"Processing"	""	"2018-11-01 10:15:18"	"1514601245"	"P016-0004"	"Isi Pensil Mekanik Polymer Leads 0.5 2B"	"Pilot"	""	""	"3"	"5000.00"	"5000.00"	"15000.00"	"3"	"15000.00"	"10800"	"3"	"0"	"Ready (0-1 Days)"	"Daruma"
"SO-000312"	"2018-11-01 10:15:15"	"Processing"	""	"2018-11-01 10:15:18"	"1523953146"	"P025-0001"	"PP Lite A4 70 Gr"	"PP Lite"	""	""	"15"	"38000.00"	"38000.00"	"570000.00"	"15"	"570000.00"	"512850"	"15"	"0"	"Ready (0-1 Days)"	"Daruma"
"SO-000312"	"2018-11-01 10:15:15"	"Processing"	""	"2018-11-01 10:15:18"	"1893293213"	"J009-0023"	"Joyko Binder Clips 51 mm No. 260"	"Joyko"	""	""	"2"	"16000.00"	"16000.00"	"32000.00"	"2"	"32000.00"	"27400"	"2"	"0"	"Ready (0-1 Days)"	"Daruma"
"SO-000312"	"2018-11-01 10:15:15"	"Processing"	""	"2018-11-01 10:15:18"	"835443347"	"M074-0002"	"Microdot Executive Tray 703 H Black"	"Microdot"	""	""	"3"	"99000.00"	"99000.00"	"297000.00"	"3"	"297000.00"	"252000"	"2"	"1"	"Ready 2 (0-1 Days), Indent 1 (1-3 Days)"	"Daruma"
"SO-000312"	"2018-11-01 10:15:15"	"Processing"	""	"2018-11-01 10:15:18"	"1889595320"	"J009-0016"	"Joyko Tapes Double Sided 0.5"" x 15 Yard"	"Joyko"	""	""	"6"	"3000.00"	"3000.00"	"18000.00"	"6"	"18000.00"	"13933.3199999999997089616954326629638671875"	"6"	"0"	"Ready (0-1 Days)"	"Daruma"
"SO-000312"	"2018-11-01 10:15:15"	"Processing"	""	"2018-11-01 10:15:18"	"2132029988"	"J009-0006"	"Joyko Paperclip Trigonal No 1 Small Box"	"Joyko"	"8DJO-1"	""	"10"	"2500.00"	"2500.00"	"25000.00"	"10"	"25000.00"	"17000"	"10"	"0"	"Ready (0-1 Days)"	"Daruma"
"SO-000312"	"2018-11-01 10:15:15"	"Processing"	""	"2018-11-01 10:15:18"	"668947218"	"D023-0001"	"DAIMARU Tapes OPP 2"" x 90 Yard Transparant"	"Daimaru"	""	"https://media.daruma.co.id/images/products/t/66/daimaru-tapes-opp-2-x-90-yard-transparant-image.jpg"	"3"	"9000.00"	"9000.00"	"27000.00"	"3"	"27000.00"	"22800"	"3"	"0"	"Ready (0-1 Days)"	"Daruma"
"SO-000312"	"2018-11-01 10:15:15"	"Processing"	""	"2018-11-01 10:15:18"	"1213434778"	""	"Daimaru Tapes Cellulose 0,5 x 72 Yard"	""	""	""	"5"	"3000.00"	"3000.00"	"15000.00"	"5"	"15000.00"	"11500"	"5"	"0"	"Ready (0-1 Days)"	"Daruma"
"SO-000312"	"2018-11-01 10:15:15"	"Processing"	""	"2018-11-01 10:15:18"	"1440035127"	""	"Nachi Solatif 1/2 inch"	"Nachi"	""	""	"12"	"1100.00"	"1100.00"	"13200.00"	"12"	"13200.00"	"7800"	"0"	"12"	"Indent (1-3 Days)"	"Daruma"
"SO-000312"	"2018-11-01 10:15:15"	"Processing"	""	"2018-11-01 10:15:18"	"899026957"	""	"Daiichi Business File F4"	""	""	""	"12"	"6500.00"	"6500.00"	"78000.00"	"12"	"78000.00"	"60000"	"12"	"0"	"Ready (0-1 Days)"	"Daruma"
"SO-000313"	"2018-11-01 10:40:25"	"Completed"	""	"2018-11-01 10:40:27"	"1824251261"	"E019-0003"	"Epson Printer Ink For L100/200/300 T6643 Magenta"	"Epson"	""	""	"1"	"95000.00"	"95000.00"	"95000.00"	"1"	"95000.00"	"83400"	"1"	"0"	"Ready (0-1 Days)"	"Daruma"
"SO-000313"	"2018-11-01 10:40:25"	"Completed"	""	"2018-11-01 10:40:27"	"1523953146"	"P025-0001"	"PP Lite A4 70 Gr"	"PP Lite"	""	""	"5"	"38000.00"	"38000.00"	"190000.00"	"5"	"190000.00"	"170950"	"5"	"0"	"Ready (0-1 Days)"	"Daruma"
"SO-000313"	"2018-11-01 10:40:25"	"Completed"	""	"2018-11-01 10:40:27"	"899026957"	""	"Daiichi Business File F4"	""	""	""	"12"	"6500.00"	"6500.00"	"78000.00"	"12"	"78000.00"	"60000"	"12"	"0"	"Ready (0-1 Days)"	"Daruma"
"SO-000313"	"2018-11-01 10:40:25"	"Completed"	""	"2018-11-01 10:40:27"	"1407454083"	"E019-0001"	"Epson Printer Ink For L100/ L200/L300 T6641 Black"	"Epson"	""	""	"1"	"95000.00"	"95000.00"	"95000.00"	"1"	"95000.00"	"83400"	"1"	"0"	"Ready (0-1 Days)"	"Daruma"
"SO-000313"	"2018-11-01 10:40:25"	"Completed"	""	"2018-11-01 10:40:27"	"352682633"	"D031-0002"	"Daiichi Clear Sleeves Size F4 Dcs05Fc Transparant"	"Daiichi"	"8FDC-CSF408"	""	"3"	"27000.00"	"27000.00"	"81000.00"	"3"	"81000.00"	"72000"	"3"	"0"	"Ready (0-1 Days)"	"Daruma"
"SO-000313"	"2018-11-01 10:40:25"	"Completed"	""	"2018-11-01 10:40:27"	"1373441287"	"E019-0002"	"Epson Printer Ink For  L100/ L200/L300 T6642 Cyan"	"Epson"	""	""	"1"	"95000.00"	"95000.00"	"95000.00"	"1"	"95000.00"	"83400"	"0"	"1"	"Indent (1-3 Days)"	"Daruma"
"SO-000313"	"2018-11-01 10:40:25"	"Completed"	""	"2018-11-01 10:40:27"	"1797138063"	"E019-0004"	"Epson Printer Ink For L100/L200/300 T6644 Yellow"	"Epson"	""	""	"1"	"87000.00"	"87000.00"	"87000.00"	"1"	"87000.00"	"83400"	"1"	"0"	"Ready (0-1 Days)"	"Daruma"
"SO-000314"	"2018-11-01 10:41:38"	"Processing"	""	"2018-11-01 10:41:41"	"899026957"	""	"Daiichi Business File F4"	""	""	""	"7"	"6500.00"	"6500.00"	"45500.00"	"7"	"45500.00"	"35000"	"7"	"0"	"Ready (0-1 Days)"	"Daruma"
"SO-000314"	"2018-11-01 10:41:38"	"Processing"	""	"2018-11-01 10:41:41"	"2018549119"	"B027-0001"	"Boss Stabilo Green"	"Boss"	""	""	"2"	"9000.00"	"9000.00"	"18000.00"	"2"	"18000.00"	"14600"	"2"	"0"	"Ready (0-1 Days)"	"Daruma"
"SO-000314"	"2018-11-01 10:41:38"	"Processing"	""	"2018-11-01 10:41:41"	"1523953146"	"P025-0001"	"PP Lite A4 70 Gr"	"PP Lite"	""	""	"7"	"38000.00"	"38000.00"	"266000.00"	"7"	"266000.00"	"239330"	"7"	"0"	"Ready (0-1 Days)"	"Daruma"
"SO-000314"	"2018-11-01 10:41:38"	"Processing"	""	"2018-11-01 10:41:41"	"1155836957"	"C014-0006"	"Citizen Calculator Desktop 12 Digit Sdc-868"	"Citizen"	""	""	"3"	"98000.00"	"98000.00"	"294000.00"	"3"	"294000.00"	"262200"	"0"	"3"	"Indent (1-3 Days)"	"Daruma"
"SO-000315"	"2018-11-01 13:51:27"	"Pending Payment"	""	""	"911871580"	"T043-0011"	"Tanizawa Helmet Hanger Eco Rack, 822R, 336-8106"	"Tanizawa"	""	"https://media.daruma.co.id/images/products/t/91/helmet-hanger-eco-rack-336-8106-image.jpg"	"10"	"344000.00"	"309600.00"	"3096000.00"	"0"	"0.00"	"0"	"10"	"0"	"Ready (1-3 Days)"	"Daruma"
"SO-000317"	"2018-11-01 16:07:44"	"Completed"	""	"2018-11-01 16:07:46"	"1144046151"	""	"Bindex Bambi Lever Arch File Black 1/2 Foolscap, 777"	"Bambi"	""	""	"24"	"27720.00"	"27720.00"	"665280.00"	"24"	"665280.00"	"600000"	"0"	"24"	"Indent (1-3 Days)"	"Daruma"
"SO-000318"	"2018-11-01 16:44:40"	"Completed"	""	"2018-11-01 16:44:42"	"1573134980"	"M048-0183"	"3M Label Post It Size 3x5 655 Yellow"	"3M"	""	""	"3"	"18000.00"	"18000.00"	"54000.00"	"3"	"54000.00"	"43800"	"3"	"0"	"Ready (0-1 Days)"	"Daruma"
"SO-000318"	"2018-11-01 16:44:40"	"Completed"	""	"2018-11-01 16:44:42"	"696778212"	"J009-0003"	"JOYKO Binder Clip Capacity No 155"	"Joyko"	""	"https://media.daruma.co.id/images/products/t/69/joyko-binder-clip-capacity-no-155-image.jpg"	"5"	"8000.00"	"8000.00"	"40000.00"	"5"	"40000.00"	"29500"	"5"	"0"	"Ready (0-1 Days)"	"Daruma"
"SO-000318"	"2018-11-01 16:44:40"	"Completed"	""	"2018-11-01 16:44:42"	"1523953146"	"P025-0001"	"PP Lite A4 70 Gr"	"PP Lite"	""	""	"80"	"37200.00"	"37200.00"	"2976000.00"	"80"	"2976000.00"	"2735200"	"24"	"56"	"Ready 24 (0-1 Days), Indent 56 (1-3 Days)"	"Daruma"
"SO-000318"	"2018-11-01 16:44:40"	"Completed"	""	"2018-11-01 16:44:42"	"668947218"	"D023-0001"	"DAIMARU Tapes OPP 2"" x 90 Yard Transparant"	"Daimaru"	""	"https://media.daruma.co.id/images/products/t/66/daimaru-tapes-opp-2-x-90-yard-transparant-image.jpg"	"72"	"10000.00"	"10000.00"	"720000.00"	"72"	"720000.00"	"583850.880000000004656612873077392578125"	"65"	"7"	"Ready 65 (0-1 Days), Indent 7 (1-3 Days)"	"Daruma"
"SO-000318"	"2018-11-01 16:44:40"	"Completed"	""	"2018-11-01 16:44:42"	"228879697"	"M048-0180"	"3M Label Post It Size 1.5x2"" 653 Yellow"	"3M"	""	""	"12"	"6000.00"	"6000.00"	"72000.00"	"12"	"72000.00"	"50400"	"12"	"0"	"Ready (0-1 Days)"	"Daruma"
"SO-000318"	"2018-11-01 16:44:40"	"Completed"	""	"2018-11-01 16:44:42"	"610655652"	"B021-0001"	"Butterfly Ruler Plastick 30 Cm"	"Butterfly"	""	""	"5"	"3000.00"	"3000.00"	"15000.00"	"5"	"15000.00"	"8500"	"5"	"0"	"Ready (0-1 Days)"	"Daruma"
"SO-000318"	"2018-11-01 16:44:40"	"Completed"	""	"2018-11-01 16:44:42"	"1522934127"	"J009-0014"	"Joyko Binder Clip capacity no. 200 @12"	"Joyko"	""	""	"3"	"11000.00"	"11000.00"	"33000.00"	"3"	"33000.00"	"25500"	"3"	"0"	"Ready (0-1 Days)"	"Daruma"
"SO-000318"	"2018-11-01 16:44:40"	"Completed"	""	"2018-11-01 16:44:42"	"1022351392"	"B015-0007"	"Bantex Cardboard Divider N Indexes A4 A-Z  6043"	"Bantex"	"8FBT-6043"	""	"2"	"17000.00"	"17000.00"	"34000.00"	"2"	"34000.00"	"30200"	"2"	"0"	"Ready (0-1 Days)"	"Daruma"
"SO-000318"	"2018-11-01 16:44:40"	"Completed"	""	"2018-11-01 16:44:42"	"1710354522"	"S100-0001"	"Standard Ballpoint Clip Ae-7 Blue"	""	""	""	"1"	"20000.00"	"20000.00"	"20000.00"	"1"	"20000.00"	"18000"	"1"	"0"	"Ready (0-1 Days)"	"Daruma"
"SO-000318"	"2018-11-01 16:44:40"	"Completed"	""	"2018-11-01 16:44:42"	"534101390"	"S099-0002"	"Staedtler Pencil Lumograph 100-2B"	"Staedtler"	""	""	"5"	"4000.00"	"4000.00"	"20000.00"	"5"	"20000.00"	"15000"	"5"	"0"	"Ready (0-1 Days)"	"Daruma"
"SO-000318"	"2018-11-01 16:44:40"	"Completed"	""	"2018-11-01 16:44:42"	"866684849"	"S099-0001"	"Staedtler Eraser Size 33X16X13Mm B-40"	"Staedtler"	""	""	"5"	"3000.00"	"3000.00"	"15000.00"	"5"	"15000.00"	"9000"	"5"	"0"	"Ready (0-1 Days)"	"Daruma"
"SO-000318"	"2018-11-01 16:44:40"	"Completed"	""	"2018-11-01 16:44:42"	"1198087114"	"D023-0005"	"Daimaru Tape 1 Inch"	"Daimaru"	""	""	"6"	"6000.00"	"6000.00"	"36000.00"	"6"	"36000.00"	"24000"	"6"	"0"	"Ready (0-1 Days)"	"Daruma"
"SO-000318"	"2018-11-01 16:44:40"	"Completed"	""	"2018-11-01 16:44:42"	"1884364682"	"E020-0001"	"Etona Staples 24/6 No.3"	"Etona"	""	""	"5"	"4000.00"	"4000.00"	"20000.00"	"5"	"20000.00"	"14000"	"5"	"0"	"Ready (0-1 Days)"	"Daruma"
"SO-000318"	"2018-11-01 16:44:40"	"Completed"	""	"2018-11-01 16:44:42"	"921337847"	"M058-0006"	"MAX Isi  Stapler HD-10"	""	""	""	"10"	"4000.00"	"4000.00"	"40000.00"	"10"	"40000.00"	"22000"	"10"	"0"	"Ready (0-1 Days)"	"Daruma"
"SO-000318"	"2018-11-01 16:44:40"	"Completed"	""	"2018-11-01 16:44:42"	"599088671"	"M058-0012"	"Max Stapler HD-10 HD92264"	"Max"	""	""	"4"	"14000.00"	"14000.00"	"56000.00"	"4"	"56000.00"	"46800"	"4"	"0"	"Ready (0-1 Days)"	"Daruma"
"SO-000318"	"2018-11-01 16:44:40"	"Completed"	""	"2018-11-01 16:44:42"	"2132029988"	"J009-0006"	"Joyko Paperclip Trigonal No 1 Small Box"	"Joyko"	"8DJO-1"	""	"10"	"3000.00"	"3000.00"	"30000.00"	"10"	"30000.00"	"17000"	"10"	"0"	"Ready (0-1 Days)"	"Daruma"
"SO-000318"	"2018-11-01 16:44:40"	"Completed"	""	"2018-11-01 16:44:42"	"835443347"	"M074-0002"	"Microdot Executive Tray 703 H Black"	"Microdot"	""	""	"1"	"99000.00"	"99000.00"	"99000.00"	"1"	"99000.00"	"84000"	"1"	"0"	"Ready (0-1 Days)"	"Daruma"
"SO-000319"	"2018-11-02 09:49:13"	"Completed (Paid)"	""	"2018-11-05 10:47:34"	"1524204284"	"N019-0005"	"Netsuren Hook Spanner (Kunci Hex), Q0866-5154, 448-7061"	"Netsuren"	""	"https://media.daruma.co.id/images/products/t/15/hook-spanner-448-7061-image.jpg"	"1"	"163000.00"	"163000.00"	"163000.00"	"1"	"163000.00"	"130300"	"1"	"0"	"Ready (1-3 Days)"	"Daruma"
"SO-000320"	"2018-11-02 10:14:28"	"Pending Payment"	""	""	"1900151517"	"S023-0040"	"SK Steel Carpenter Square Kaidan, CB15KD , 486-5987"	"SK"	""	"https://media.daruma.co.id/images/products/t/19/sk-steel-carpenter-square-kaidan-cb15kd-486-5987-image.jpg"	"1"	"60000.00"	"60000.00"	"60000.00"	"0"	"0.00"	"0"	"1"	"0"	"Ready (1-3 Days)"	"Daruma"
"SO-000321"	"2018-11-02 11:09:36"	"Completed (Paid)"	""	"2018-11-05 10:46:22"	"2042759763"	"A009-0345"	"Anex Very Short Stubby Interchangeable Screwdriver, 62 , 327-2176"	"Anex"	""	"https://media.daruma.co.id/images/products/t/20/anex-very-short-stubby-interchangeable-screwdriver-62-327-2176-image.jpg"	"1"	"91000.00"	"91000.00"	"91000.00"	"1"	"91000.00"	"72100"	"1"	"0"	"Ready (1-3 Days)"	"Daruma"
"SO-000321"	"2018-11-02 11:09:36"	"Completed (Paid)"	""	"2018-11-05 10:46:22"	"1372150804"	"S020-0018"	"Sunflag Ultra Mini (Obeng), 32.5 mm, 99B-3025, 396-1338"	"Sunflag"	""	"https://media.daruma.co.id/images/products/t/13/ultra-mini-396-1338-image.jpg"	"1"	"43000.00"	"43000.00"	"43000.00"	"1"	"43000.00"	"33900"	"1"	"0"	"Ready (1-3 Days)"	"Daruma"
"SO-000321"	"2018-11-02 11:09:36"	"Completed (Paid)"	""	"2018-11-05 10:46:22"	"1674335540"	"A009-0042"	"Anex Very Short Stubby Interchangeable Screwdriver (Obeng Stubby), 33 mm, 60-1011, 295-5709"	"Anex"	""	"https://media.daruma.co.id/images/products/t/16/very-short-stubby-interchangeable-screwdriver-295-5709-image.jpg"	"2"	"47000.00"	"47000.00"	"94000.00"	"2"	"94000.00"	"75000"	"2"	"0"	"Ready (1-3 Days)"	"Daruma"
"SO-000322"	"2018-11-02 11:15:02"	"Completed (Paid)"	""	"2018-11-05 10:44:58"	"1763212341"	"V002-0311"	"Vessel Ball grip Screwdriver (Obeng Ball-grip), 200 mm, 2206100-6080, 124-8332"	"Vessel"	""	"https://media.daruma.co.id/images/products/t/17/ball-grip-screwdriver-124-8332-image.jpg"	"5"	"85000.00"	"85000.00"	"425000.00"	"5"	"425000.00"	"338000"	"5"	"0"	"Ready (1-3 Days)"	"Daruma"
"SO-000322"	"2018-11-02 11:15:02"	"Completed (Paid)"	""	"2018-11-05 10:44:58"	"1529943881"	"V002-0304"	"Vessel Ball grip Screwdriver (Obeng Ball-grip), 200 mm, 2202100-6080, 124-6780"	"Vessel"	""	"https://media.daruma.co.id/images/products/t/15/ball-grip-screwdriver-124-6780-image.jpg"	"5"	"85000.00"	"85000.00"	"425000.00"	"5"	"425000.00"	"338000"	"5"	"0"	"Ready (1-3 Days)"	"Daruma"
"SO-000323"	"2018-11-02 13:15:48"	"Completed"	""	"2018-11-02 13:15:49"	"1266123894"	"P017-0001"	"Paperone Kertas Fotocopy 70gr A4"	"Paperone"	""	"https://media.daruma.co.id/images/products/t/12/paperone-kertas-fotocopy-70gr-a4-image.jpg"	"5"	"39000.00"	"39000.00"	"195000.00"	"5"	"195000.00"	"175500"	"5"	"0"	"Ready (0-1 Days)"	"Daruma"
"SO-000323"	"2018-11-02 13:15:48"	"Completed"	""	"2018-11-02 13:15:49"	"352682633"	"D031-0002"	"Daiichi Clear Sleeves Size F4 Dcs05Fc Transparant"	"Daiichi"	"8FDC-CSF408"	""	"1"	"27000.00"	"27000.00"	"27000.00"	"1"	"27000.00"	"24000"	"1"	"0"	"Ready (0-1 Days)"	"Daruma"
"SO-000324"	"2018-11-02 13:50:28"	"Completed (Paid)"	""	"2018-11-02 22:19:11"	"792081934"	"L007-0003"	"Loctite Lb 8150 Silver Grade Anti-Seize"	"Loctite"	""	"https://media.daruma.co.id/images/products/t/79/loctite-lb-8150-silver-grade-anti-seize-image.jpg"	"1"	"139500.00"	"139500.00"	"139500.00"	"1"	"139500.00"	"100300"	"1"	"0"	"Ready (1-3 Days)"	"Daruma"
"SO-000325"	"2018-11-02 16:45:54"	"Completed (Paid)"	""	"2018-11-05 09:17:12"	"1588333721"	"H010-0014"	"Hit Steel Strap Cutter, SS450 , 254-2099"	"Hit"	""	"https://media.daruma.co.id/images/products/t/15/hit-steel-strap-cutter-ss450-254-2099-image.jpg"	"1"	"1256000.00"	"1256000.00"	"1256000.00"	"1"	"1256000.00"	"1004600"	"1"	"0"	"Ready (1-3 Days)"	"Daruma"
"SO-000327"	"2018-11-05 08:39:06"	"Shipping"	""	"2018-11-07 14:26:32"	"1734814587"	"K029-0001"	"Kansai Long Shackle Heavy Duty, KL19X160, 305-0831"	"Kansai"	""	"https://media.daruma.co.id/images/products/t/17/long-shackle-heavy-duty-305-0831-image.jpg"	"8"	"507000.00"	"456300.00"	"3650400.00"	"0"	"0.00"	"0"	"8"	"0"	"Ready (1-3 Days)"	"Daruma"
"SO-000327"	"2018-11-05 08:39:06"	"Shipping"	""	"2018-11-07 14:26:32"	"1389474452"	""	"Kansai Powerful Length Shackle 16 X 14, KL-16X140, 305-0823"	"Kansai"	""	""	"4"	"472000.00"	"424800.00"	"1699200.00"	"0"	"0.00"	"0"	"4"	"0"	"Ready (1-3 Days)"	"Daruma"
"SO-000328"	"2018-11-05 08:51:51"	"Completed (Paid)"	""	"2018-11-06 08:30:39"	"483630451"	"K018-0150"	"Kanetec Table Type Demagnetizer, KMD20C, 107-7376"	"Kanetec"	""	"https://media.daruma.co.id/images/products/t/48/kanetec-table-type-demagnetizer-kmd20c-107-7376-image.jpg"	"1"	"10341000.00"	"9823950.00"	"9823950.00"	"1"	"9823950.00"	"8272100"	"0"	"1"	"Indent (15-40 Days)"	"Daruma"
"SO-000329"	"2018-11-05 13:52:24"	"Completed (Paid)"	""	"2018-11-05 15:36:41"	"534963823"	"T053-0005"	"Tokinarc Tip Type N Size 1.2mm, 002003"	"Tokinarc"	"2003"	"https://media.daruma.co.id/images/products/t/53/tip-type-n-size-1-2mm-image.jpg"	"40"	"12000.00"	"10800.00"	"432000.00"	"40"	"432000.00"	"408000"	"40"	"0"	"Ready (1-3 Days)"	"Daruma"
"SO-000330"	"2018-11-05 14:17:17"	"Completed (Paid)"	""	"2018-11-08 10:40:25"	"91273256"	"L007-0143"	"Loctite 577 Thread Sealant 50ml"	"Loctite"	""	"https://media.daruma.co.id/images/products/t/91/loctite-577-thread-sealant-50ml-image.jpg"	"5"	"259200.00"	"201600.00"	"1008000.00"	"5"	"1008000.00"	"933500"	"5"	"0"	"Ready (1-3 Days)"	"Daruma"
"SO-000331"	"2018-11-05 15:51:44"	"Processing"	""	"2018-11-09 14:25:43"	"493548553"	"S060-0015"	"Swipe-All C86 Chemical Sorbent Sock 60 L (Penyerap Kimia), 12286"	"Swipeall"	""	"https://media.daruma.co.id/images/products/t/49/swipe-all-c86-chemical-sorbent-sock-60-l-12286-image.jpg"	"1"	"1100000.00"	"990000.00"	"990000.00"	"0"	"0.00"	"0"	"1"	"0"	"Ready (1-3 Days)"	"Daruma"
"SO-000331"	"2018-11-05 15:51:44"	"Processing"	""	"2018-11-09 14:25:43"	"1893426523"	"S060-0002"	"Swipe-All P80 Oil Sorbent Pad White (Penyerap Oli), 79980"	"Swipeall"	""	"https://media.daruma.co.id/images/products/t/18/swipe-all-p80-pad-40-x-50-cm-image.jpg"	"1"	"675000.00"	"607500.00"	"607500.00"	"0"	"0.00"	"0"	"1"	"0"	"Ready (1-3 Days)"	"Daruma"
"SO-000333"	"2018-11-06 09:34:25"	"Shipping"	""	"2018-11-06 09:34:28"	"836029924"	"D031-0006"	"Daiichi Clear Sleeve Single Pocket A4 @20"	"Daiichi"	""	""	"1"	"23000.00"	"23000.00"	"23000.00"	"0"	"0.00"	"0"	"1"	"0"	"Ready (0-1 Days)"	"Daruma"
"SO-000333"	"2018-11-06 09:34:25"	"Shipping"	""	"2018-11-06 09:34:28"	"835443347"	"M074-0002"	"Microdot Executive Tray 703 H Black"	"Microdot"	""	""	"3"	"99000.00"	"99000.00"	"297000.00"	"0"	"0.00"	"0"	"2"	"1"	"Ready 2 (0-1 Days), Indent 1 (1-3 Days)"	"Daruma"
"SO-000333"	"2018-11-06 09:34:25"	"Shipping"	""	"2018-11-06 09:34:28"	"2060707432"	"J009-0009"	"Joyko Cutter A-300"	"Joyko"	"8DJO-A300"	""	"12"	"6000.00"	"6000.00"	"72000.00"	"0"	"0.00"	"0"	"8"	"4"	"Ready 8 (0-1 Days), Indent 4 (1-3 Days)"	"Daruma"
"SO-000333"	"2018-11-06 09:34:25"	"Shipping"	""	"2018-11-06 09:34:28"	"53883814"	""	"Joyko Refill Cutter blade A-100"	"Joyko"	""	""	"1"	"3000.00"	"3000.00"	"3000.00"	"0"	"0.00"	"0"	"1"	"0"	"Ready (0-1 Days)"	"Daruma"
"SO-000333"	"2018-11-06 09:34:25"	"Shipping"	""	"2018-11-06 09:34:28"	"1496513115"	"S079-0003"	"SNOWMAN Marker Whiteboard BG-12 Bullet Tip Hitam"	"Snowman"	""	"https://media.daruma.co.id/images/products/t/14/snowman-marker-whiteboard-bg-12-bullet-tip-hitam-image.jpg"	"12"	"8000.00"	"8000.00"	"96000.00"	"0"	"0.00"	"0"	"12"	"0"	"Ready (0-1 Days)"	"Daruma"
"SO-000333"	"2018-11-06 09:34:25"	"Shipping"	""	"2018-11-06 09:34:28"	"29743255"	""	"Tom N Jerry Label No.126"	"Tom N Jerry"	""	""	"1"	"6000.00"	"6000.00"	"6000.00"	"0"	"0.00"	"0"	"0"	"1"	"Indent (1-3 Days)"	"Daruma"
"SO-000333"	"2018-11-06 09:34:25"	"Shipping"	""	"2018-11-06 09:34:28"	"1655309240"	"S100-0003"	"Standard Ballpoint AE7-0.5 Black"	"Standard"	""	""	"1"	"20000.00"	"20000.00"	"20000.00"	"0"	"0.00"	"0"	"1"	"0"	"Ready (0-1 Days)"	"Daruma"
"SO-000333"	"2018-11-06 09:34:25"	"Shipping"	""	"2018-11-06 09:34:28"	"534101390"	"S099-0002"	"Staedtler Pencil Lumograph 100-2B"	"Staedtler"	""	""	"12"	"4000.00"	"4000.00"	"48000.00"	"0"	"0.00"	"0"	"12"	"0"	"Ready (0-1 Days)"	"Daruma"
"SO-000333"	"2018-11-06 09:34:25"	"Shipping"	""	"2018-11-06 09:34:28"	"1077993825"	"B015-0009"	"Bantex Cardboard Divider N Indexes A4 10 Page 6050"	"Bantex"	"8FBT-6050"	""	"1"	"8000.00"	"8000.00"	"8000.00"	"0"	"0.00"	"0"	"1"	"0"	"Ready (0-1 Days)"	"Daruma"
"SO-000333"	"2018-11-06 09:34:25"	"Shipping"	""	"2018-11-06 09:34:28"	"105074459"	"K069-0003"	"Kenko Sharpener Sp-828"	"Kenko"	""	""	"1"	"5000.00"	"5000.00"	"5000.00"	"0"	"0.00"	"0"	"0"	"1"	"Indent (1-3 Days)"	"Daruma"
"SO-000333"	"2018-11-06 09:34:25"	"Shipping"	""	"2018-11-06 09:34:28"	"979233733"	"P017-0002"	"Paperone Kertas Fotocopy 80gr A4"	""	""	""	"3"	"46000.00"	"46000.00"	"138000.00"	"0"	"0.00"	"0"	"3"	"0"	"Ready (0-1 Days)"	"Daruma"
"SO-000334"	"2018-11-06 13:21:42"	"Ready to ship"	""	"2018-11-12 16:54:24"	"91273256"	"L007-0143"	"Loctite 577 Thread Sealant 50ml"	"Loctite"	""	"https://media.daruma.co.id/images/products/t/91/loctite-577-thread-sealant-50ml-image.jpg"	"5"	"259200.00"	"201600.00"	"1008000.00"	"0"	"0.00"	"0"	"5"	"0"	"Ready (1-3 Days)"	"Daruma"
"SO-000335"	"2018-11-06 16:53:24"	"Ready to ship"	""	"2018-11-08 08:46:38"	"1966148940"	"E007-0129"	"Elesa Plastic Angular Spoked Handwheel, RP250ER , 105-8436"	"Elesa"	""	"https://media.daruma.co.id/images/products/t/19/elesa-plastic-angular-spoked-handwheel-rp250er-105-8436-image.jpg"	"1"	"594000.00"	"534600.00"	"534600.00"	"0"	"0.00"	"0"	"1"	"0"	"Ready (1-3 Days)"	"Daruma"
"SO-000336"	"2018-11-07 08:26:30"	"Ready to ship"	""	"2018-11-09 14:25:07"	"601532524"	"T001-9633"	"Trusco Red Lead(Komyotan), KM250 , 123-6687"	"Trusco"	""	"https://media.daruma.co.id/images/products/t/60/trusco-red-lead-komyotan-km250-123-6687-image.jpg"	"1"	"1149000.00"	"976650.00"	"976650.00"	"0"	"0.00"	"0"	"1"	"0"	"Ready (1-3 Days)"	"Daruma"
"SO-000337"	"2018-11-07 09:18:03"	"Pending Payment"	""	""	"1279589254"	"T062-2559"	"Trusco Stretch Film Cardboard Cutter, TSD256 , 389-4614"	"Trusco"	""	"https://media.daruma.co.id/images/products/t/12/trusco-stretch-film-cardboard-cutter-tsd256-389-4614-image.jpg"	"2"	"82000.00"	"82000.00"	"164000.00"	"0"	"0.00"	"0"	"2"	"0"	"Ready (1-3 Days)"	"Daruma"
"SO-000338"	"2018-11-07 09:34:08"	"Completed (Paid)"	""	"2018-11-07 11:31:56"	"2052913938"	"L007-0034"	"Henkel Loctite Sicomet 8300 50g"	"Loctite"	""	"https://media.daruma.co.id/images/products/t/20/henkel-loctite-sicomet-8300-50g-image.jpg"	"1"	"291600.00"	"291600.00"	"291600.00"	"1"	"291600.00"	"210300"	"1"	"0"	"Ready (1-3 Days)"	"Daruma"
"SO-000339"	"2018-11-07 10:02:30"	"Processing"	""	"2018-11-12 16:53:16"	"1610672912"	"T062-2851"	"Trusco Platform Truck W/ Fix Handle Pedal Brake, 301NS , 414-5364"	"Trusco"	""	"https://media.daruma.co.id/images/products/t/16/trusco-platform-truck-w-fix-handle-pedal-brake-301ns-414-5364-image.jpg"	"2"	"3387000.00"	"3387000.00"	"6774000.00"	"0"	"0.00"	"0"	"0"	"2"	"Indent (30-45 Days)"	"Daruma"
"SO-000339"	"2018-11-07 10:02:30"	"Processing"	""	"2018-11-12 16:53:16"	"2036812376"	"T001-5738"	"Trusco Platform Truck W/ Fix Handle Pin Brake, 502NKB, 414-5623"	"Trusco"	""	"https://media.daruma.co.id/images/products/t/20/platform-truck-w-fix-handle-pin-brake-414-5623-image.jpg"	"3"	"8802000.00"	"8802000.00"	"26406000.00"	"0"	"0.00"	"0"	"1"	"2"	"Ready 1 (1-3 Days), Indent 2 (30-45 Days)"	"Daruma"
"SO-000340"	"2018-11-07 13:23:47"	"Completed (Paid)"	""	"2018-11-07 14:30:04"	"781506613"	"S063-0009"	"Sanwa Mini Ball Valve (Stop Kran), Model BV 15 MM, Size 1/2"""	"Sanwa"	""	"https://media.daruma.co.id/images/products/t/78/sanwa-mini-ball-valve-model-bv-15-mm-size-1-2-image.jpg"	"4"	"34500.00"	"34500.00"	"138000.00"	"4"	"138000.00"	"110400"	"4"	"0"	"Ready (1-3 Days)"	"Daruma"
"SO-000341"	"2018-11-08 08:32:51"	"Processing"	""	"2018-11-08 08:46:59"	"1764635784"	"S021-0217"	"Super Flange Nut, 20MFN, 171-5437"	"Super"	""	"https://media.daruma.co.id/images/products/t/17/flange-nut-171-5437-image.jpg"	"20"	"98000.00"	"98000.00"	"1960000.00"	"0"	"0.00"	"0"	"0"	"20"	"Indent (15-40 Days)"	"Daruma"
"SO-000342"	"2018-11-08 09:09:53"	"Pending Payment"	""	""	"1255475169"	"M048-0045"	"3M Hard Hat (Helm Safety), White, H-701R,7000002414"	"3M"	""	"https://media.daruma.co.id/images/products/t/12/3m-hard-hat-h-701r-white-4-point-ratchet-suspension-image.jpg"	"1"	"253000.00"	"227700.00"	"227700.00"	"0"	"0.00"	"0"	"0"	"1"	"Indent (20-30 Days)"	"Daruma"
"SO-000343"	"2018-11-08 11:34:28"	"Processing"	""	"2018-11-08 14:15:41"	"1219027925"	"M010-0003"	"MCC Cable Cutter, 1065 mm, CC0303-8615, 117-6064"	"MCC"	""	"https://www.daruma.co.id/media/catalog/product/H/A/HACRCEMC00006.jpg"	"1"	"5241000.00"	"4716900.00"	"4716900.00"	"0"	"0.00"	"0"	"0"	"1"	"Indent (15-40 Days)"	"Daruma"
"SO-000344"	"2018-11-08 13:46:48"	"Completed (Paid)"	""	"2018-11-08 14:31:36"	"2133592146"	"L007-0011"	"Loctite 1167237 White LB 8014 Food Grade Anti-Seize Lubricant"	"Loctite"	""	"https://media.daruma.co.id/images/products/t/21/loctite-1167237-white-lb-8014-food-grade-anti-seize-lubricant-image.jpg"	"1"	"502200.00"	"502200.00"	"502200.00"	"1"	"502200.00"	"362400"	"1"	"0"	"Ready (1-3 Days)"	"Daruma"
"SO-000345"	"2018-11-08 15:28:40"	"Pending Payment"	""	""	"362073243"	"Z004-0030"	"Zebra Ribbon Black Monochrome ZXP3"	"Zebra"	""	"https://media.daruma.co.id/images/products/t/36/zebra-ribbon-black-monochrome-zxp3-image.jpg"	"1"	"175000.00"	"175000.00"	"175000.00"	"0"	"0.00"	"0"	"1"	"0"	"Ready (1-3 Days)"	"Daruma"
"SO-000346"	"2018-11-09 08:45:24"	"Completed (Paid)"	""	"2018-11-09 13:12:13"	"1855813728"	"Z004-0026"	"Zebra ZXP 3"	"Zebra"	""	"https://media.daruma.co.id/images/products/t/18/zebra-zxp-3-image.jpg"	"1"	"14546000.00"	"12245000.00"	"12245000.00"	"1"	"12245000.00"	"12000000"	"1"	"0"	"Ready (1-3 Days)"	"Daruma"
"SO-000347"	"2018-11-09 10:25:16"	"Processing"	""	"2018-11-09 13:25:41"	"1063358373"	"T062-4784"	"Trusco Point Tap, THPOM4X0.7, 391-2973"	"Trusco"	""	"https://media.daruma.co.id/images/products/t/10/trusco-point-tap-thpom4x0-7-391-2973-image.jpg"	"10"	"101000.00"	"101000.00"	"1010000.00"	"0"	"0.00"	"0"	"0"	"10"	"Indent (15-40 Days)"	"Daruma"
"SO-000348"	"2018-11-09 13:23:21"	"Ready to ship"	""	"2018-11-09 14:51:12"	"1183938250"	"C020-0071"	"CEJN Series 315-DN 7.5 - Nipples Male Thread R 1/4"" (Nipple Pneumatik), 103155152"	"CEJN"	""	"https://media.daruma.co.id/images/products/t/11/series-315-dn-7-5-nipples-male-thread-r-1-4-103155152-image.jpg"	"3"	"20500.00"	"19475.00"	"58425.00"	"0"	"0.00"	"0"	"3"	"0"	"Ready (1-3 Days)"	"Daruma"
"SO-000348"	"2018-11-09 13:23:21"	"Ready to ship"	""	"2018-11-09 14:51:12"	"1526883356"	"C020-0042"	"CEJN Hose Kit with Series 315 Standard - Spiral PUR Hose IDxOD: 8x12 mm (Selang Pneumatik), 199589418"	"CEJN"	"199589418"	"https://media.daruma.co.id/images/products/t/15/hose-kit-with-series-315-standard-spiral-pur-hose-id-x-od-8-x-12-mm-199589418-image.jpg"	"3"	"406800.00"	"386460.00"	"1159380.00"	"0"	"0.00"	"0"	"3"	"0"	"Ready (1-3 Days)"	"Daruma"
"SO-000348"	"2018-11-09 13:23:21"	"Ready to ship"	""	"2018-11-09 14:51:12"	"1985893035"	"C020-0097"	"CEJN Air & Fluid Guns - Basic Blow Gun Body R 1/4"" thread (Air Gun Pneumatik), 112080000"	"CEJN"	""	"https://media.daruma.co.id/images/products/t/19/air-fluid-guns-basic-blow-gun-body-r-1-4-thread-112080000-image.jpg"	"3"	"251400.00"	"238830.00"	"716490.00"	"0"	"0.00"	"0"	"3"	"0"	"Ready (1-3 Days)"	"Daruma"
"SO-000349"	"2018-11-09 14:01:53"	"Canceled"	"Duplicate"	""	"1607650079"	"I014-0006"	"Inoue Kougu Carbon Scraper, 17042 , 756-3876"	"Inoue"	""	"https://media.daruma.co.id/images/products/t/16/inoue-kougu-carbon-scraper-17042-756-3876-image.jpg"	"1"	"31000.00"	"31000.00"	"31000.00"	"0"	"0.00"	"0"	"1"	"0"	"Ready (1-3 Days)"	"Daruma"
"SO-000350"	"2018-11-09 14:07:06"	"Canceled"	"Duplicate"	""	"1607650079"	"I014-0006"	"Inoue Kougu Carbon Scraper, 17042 , 756-3876"	"Inoue"	""	"https://media.daruma.co.id/images/products/t/16/inoue-kougu-carbon-scraper-17042-756-3876-image.jpg"	"1"	"31000.00"	"31000.00"	"31000.00"	"0"	"0.00"	"0"	"1"	"0"	"Ready (1-3 Days)"	"Daruma"
"SO-000351"	"2018-11-09 14:43:14"	"Processing"	""	"2018-11-09 14:51:30"	"1607650079"	"I014-0006"	"Inoue Kougu Carbon Scraper, 17042 , 756-3876"	"Inoue"	""	"https://media.daruma.co.id/images/products/t/16/inoue-kougu-carbon-scraper-17042-756-3876-image.jpg"	"1"	"31000.00"	"31000.00"	"31000.00"	"0"	"0.00"	"0"	"1"	"0"	"Ready (1-3 Days)"	"Daruma"
"SO-000352"	"2018-11-12 11:35:58"	"Pending Payment"	""	""	"939652463"	"L007-0112"	"Henkel Loctite 242 Threadlocker Anaerobic Adhesive Blue 50 ml Bottle"	"Loctite"	""	"https://media.daruma.co.id/images/products/t/93/henkel-loctite-242-threadlocker-anaerobic-adhesive-blue-50-ml-bottle-image.jpg"	"2"	"306000.00"	"238000.00"	"476000.00"	"0"	"0.00"	"0"	"2"	"0"	"Ready (1-3 Days)"	"Daruma"
"SO-000353"	"2018-11-12 13:19:22"	"Processing"	""	"2018-11-12 15:01:50"	"1921890346"	"S003-0003"	"Shin-Etsu High-capacity Vacuum Oil Compound, HIVACG, 126-0952"	"Shin-Etsu"	""	"https://media.daruma.co.id/images/products/t/19/high-capacity-vacuum-oil-compound-126-0952-image.jpg"	"2"	"410000.00"	"410000.00"	"820000.00"	"0"	"0.00"	"0"	"2"	"0"	"Ready (1-3 Days)"	"Daruma"
"SO-000354"	"2018-11-12 14:44:14"	"Processing"	""	"2018-11-12 16:54:58"	"186401164"	"T001-2940"	"Trusco Belt Punch, 8mm, TPO80, 336-4607"	"Trusco"	""	"https://media.daruma.co.id/images/products/t/18/belt-punch-336-4607-image.jpg"	"1"	"50000.00"	"50000.00"	"50000.00"	"0"	"0.00"	"0"	"1"	"0"	"Ready (1-3 Days)"	"Daruma"
"SO-000355"	"2018-11-12 16:40:02"	"Shipping"	""	"2018-11-12 16:42:21"	"172209691"	"Z004-0036"	"Zebra Ribbon Original Zebra J3300BK Wax Resin size 110mm x 300mtr"	"Zebra"	""	"https://media.daruma.co.id/images/products/t/17/zebra-ribbon-original-zebra-j3300bk-wax-resin-size-110mm-x-300mtr-image.jpg"	"2"	"132000.00"	"132000.00"	"264000.00"	"0"	"0.00"	"0"	"2"	"0"	"Ready (1-3 Days)"	"Daruma"
"SO-000356"	"2018-11-13 01:18:53"	"Pending Payment"	""	""	"1271464236"	"C020-0061"	"CEJN Series 115 Flat-Face - Nipples Female Thread 1/4"" NPT (Nipple Pneumatik), 101156402"	"CEJN"	""	"https://media.daruma.co.id/images/products/t/12/series-115-flat-face-nipples-female-thread-1-4-npt-101156402-image.jpg"	"1"	"389200.00"	"389200.00"	"389200.00"	"0"	"0.00"	"0"	"1"	"0"	"Ready (1-3 Days)"	"Daruma"
"SO-000357"	"2018-11-13 01:49:57"	"Processing"	""	"2018-11-13 08:28:23"	"33109307"	"C003-0020"	"Cherry Oil Stone Oil Stone (Stick), A Fine, F403R-4363, 121-3407"	"Cherry Oil Stone"	""	"https://media.daruma.co.id/images/products/t/33/oil-stone-stick-121-3407-image.jpg"	"2"	"150000.00"	"150000.00"	"300000.00"	"0"	"0.00"	"0"	"2"	"0"	"Ready (1-3 Days)"	"Daruma"
"SO-000357"	"2018-11-13 01:49:57"	"Processing"	""	"2018-11-13 08:28:23"	"571532942"	"C003-0002"	"Cherry Oil Stone Oil Stone (Square), A Jala Kasar, C4-4363, 121-4101"	"Cherry Oil Stone"	""	"https://media.daruma.co.id/images/products/t/57/oil-stone-square-121-4101-image.jpg"	"1"	"166000.00"	"166000.00"	"166000.00"	"0"	"0.00"	"0"	"1"	"0"	"Ready (1-3 Days)"	"Daruma"
"SO-000358"	"2018-11-13 15:24:02"	"Pending Payment"	""	""	"852687782"	"S019-0339"	"Stanley 30m / 100' Long Tape Closed Steel Blade, STHT34107-8"	"Stanley"	""	""	"2"	"261000.00"	"261000.00"	"522000.00"	"0"	"0.00"	"0"	"2"	"0"	"Ready (1-3 Days)"	"Daruma"
"SO-000360"	"2018-11-13 16:37:55"	"Pending Payment"	""	""	"1393521209"	"U007-0016"	"UHT Polishing Paper/Rubber Pad, 5346, 143-4861"	"UHT"	""	"https://media.daruma.co.id/images/products/t/13/polishing-paper-rubber-pad-143-4861-image.jpg"	"1"	"734000.00"	"734000.00"	"734000.00"	"0"	"0.00"	"0"	"1"	"0"	"Ready (1-3 Days)"	"Daruma"
"SO-000361"	"2018-11-13 16:48:28"	"Pending Payment"	""	""	"1334772081"	""	"Kipp clamp lever (male thread) 65 x 30 M8, KR 8 X 30, 107-9417"	"Kipp"	""	""	"8"	"259000.00"	"259000.00"	"2072000.00"	"0"	"0.00"	"0"	"8"	"0"	"Ready (1-3 Days)"	"Daruma"
"SO-000361"	"2018-11-13 16:48:28"	"Pending Payment"	""	""	"1651129426"	""	"Kipp clamp lever (male thread) 65 x 20 M8, KR 8 X 20, 107-9395"	"Kipp"	""	""	"9"	"259000.00"	"259000.00"	"2331000.00"	"0"	"0.00"	"0"	"9"	"0"	"Ready (1-3 Days)"	"Daruma"
